([('copier_organizer',
   '/home/brian/Projects/copierOrganizer/build/copier_organizer/copier_organizer',
   'EXECUTABLE'),
  ('ld-linux-x86-64.so.2', '/usr/lib64/ld-linux-x86-64.so.2', 'BINARY'),
  ('libpython3.6m.so.1.0', '/usr/lib/libpython3.6m.so.1.0', 'BINARY'),
  ('PyQt5/Qt/plugins/platforms/libqlinuxfb.so',
   '/home/brian/Projects/copierOrganizer/copierAppEnv/lib/python3.6/site-packages/PyQt5/Qt/plugins/platforms/libqlinuxfb.so',
   'BINARY'),
  ('PyQt5/Qt/plugins/platforms/libqminimal.so',
   '/home/brian/Projects/copierOrganizer/copierAppEnv/lib/python3.6/site-packages/PyQt5/Qt/plugins/platforms/libqminimal.so',
   'BINARY'),
  ('PyQt5/Qt/plugins/platforms/libqoffscreen.so',
   '/home/brian/Projects/copierOrganizer/copierAppEnv/lib/python3.6/site-packages/PyQt5/Qt/plugins/platforms/libqoffscreen.so',
   'BINARY'),
  ('PyQt5/Qt/plugins/iconengines/libqsvgicon.so',
   '/home/brian/Projects/copierOrganizer/copierAppEnv/lib/python3.6/site-packages/PyQt5/Qt/plugins/iconengines/libqsvgicon.so',
   'BINARY'),
  ('PyQt5/Qt/plugins/imageformats/libqicns.so',
   '/home/brian/Projects/copierOrganizer/copierAppEnv/lib/python3.6/site-packages/PyQt5/Qt/plugins/imageformats/libqicns.so',
   'BINARY'),
  ('PyQt5/Qt/plugins/imageformats/libqjpeg.so',
   '/home/brian/Projects/copierOrganizer/copierAppEnv/lib/python3.6/site-packages/PyQt5/Qt/plugins/imageformats/libqjpeg.so',
   'BINARY'),
  ('PyQt5/Qt/plugins/platforms/libqeglfs.so',
   '/home/brian/Projects/copierOrganizer/copierAppEnv/lib/python3.6/site-packages/PyQt5/Qt/plugins/platforms/libqeglfs.so',
   'BINARY'),
  ('PyQt5/Qt/plugins/platforms/libqvnc.so',
   '/home/brian/Projects/copierOrganizer/copierAppEnv/lib/python3.6/site-packages/PyQt5/Qt/plugins/platforms/libqvnc.so',
   'BINARY'),
  ('PyQt5/Qt/plugins/platformthemes/libqgtk3.so',
   '/home/brian/Projects/copierOrganizer/copierAppEnv/lib/python3.6/site-packages/PyQt5/Qt/plugins/platformthemes/libqgtk3.so',
   'BINARY'),
  ('PyQt5/Qt/plugins/imageformats/libqico.so',
   '/home/brian/Projects/copierOrganizer/copierAppEnv/lib/python3.6/site-packages/PyQt5/Qt/plugins/imageformats/libqico.so',
   'BINARY'),
  ('PyQt5/Qt/plugins/imageformats/libqwebp.so',
   '/home/brian/Projects/copierOrganizer/copierAppEnv/lib/python3.6/site-packages/PyQt5/Qt/plugins/imageformats/libqwebp.so',
   'BINARY'),
  ('PyQt5/Qt/plugins/platforms/libqxcb.so',
   '/home/brian/Projects/copierOrganizer/copierAppEnv/lib/python3.6/site-packages/PyQt5/Qt/plugins/platforms/libqxcb.so',
   'BINARY'),
  ('PyQt5/Qt/plugins/platforms/libqminimalegl.so',
   '/home/brian/Projects/copierOrganizer/copierAppEnv/lib/python3.6/site-packages/PyQt5/Qt/plugins/platforms/libqminimalegl.so',
   'BINARY'),
  ('PyQt5/Qt/plugins/imageformats/libqgif.so',
   '/home/brian/Projects/copierOrganizer/copierAppEnv/lib/python3.6/site-packages/PyQt5/Qt/plugins/imageformats/libqgif.so',
   'BINARY'),
  ('PyQt5/Qt/plugins/imageformats/libqtga.so',
   '/home/brian/Projects/copierOrganizer/copierAppEnv/lib/python3.6/site-packages/PyQt5/Qt/plugins/imageformats/libqtga.so',
   'BINARY'),
  ('PyQt5/Qt/plugins/imageformats/libqtiff.so',
   '/home/brian/Projects/copierOrganizer/copierAppEnv/lib/python3.6/site-packages/PyQt5/Qt/plugins/imageformats/libqtiff.so',
   'BINARY'),
  ('PyQt5/Qt/plugins/printsupport/libcupsprintersupport.so',
   '/home/brian/Projects/copierOrganizer/copierAppEnv/lib/python3.6/site-packages/PyQt5/Qt/plugins/printsupport/libcupsprintersupport.so',
   'BINARY'),
  ('PyQt5/Qt/plugins/imageformats/libqwbmp.so',
   '/home/brian/Projects/copierOrganizer/copierAppEnv/lib/python3.6/site-packages/PyQt5/Qt/plugins/imageformats/libqwbmp.so',
   'BINARY'),
  ('PyQt5/Qt/plugins/imageformats/libqsvg.so',
   '/home/brian/Projects/copierOrganizer/copierAppEnv/lib/python3.6/site-packages/PyQt5/Qt/plugins/imageformats/libqsvg.so',
   'BINARY'),
  ('resource',
   '/usr/lib/python3.6/lib-dynload/resource.cpython-36m-x86_64-linux-gnu.so',
   'EXTENSION'),
  ('_posixsubprocess',
   '/usr/lib/python3.6/lib-dynload/_posixsubprocess.cpython-36m-x86_64-linux-gnu.so',
   'EXTENSION'),
  ('_pickle',
   '/usr/lib/python3.6/lib-dynload/_pickle.cpython-36m-x86_64-linux-gnu.so',
   'EXTENSION'),
  ('_datetime',
   '/usr/lib/python3.6/lib-dynload/_datetime.cpython-36m-x86_64-linux-gnu.so',
   'EXTENSION'),
  ('_ssl',
   '/usr/lib/python3.6/lib-dynload/_ssl.cpython-36m-x86_64-linux-gnu.so',
   'EXTENSION'),
  ('_codecs_tw',
   '/usr/lib/python3.6/lib-dynload/_codecs_tw.cpython-36m-x86_64-linux-gnu.so',
   'EXTENSION'),
  ('_codecs_jp',
   '/usr/lib/python3.6/lib-dynload/_codecs_jp.cpython-36m-x86_64-linux-gnu.so',
   'EXTENSION'),
  ('_codecs_cn',
   '/usr/lib/python3.6/lib-dynload/_codecs_cn.cpython-36m-x86_64-linux-gnu.so',
   'EXTENSION'),
  ('_codecs_hk',
   '/usr/lib/python3.6/lib-dynload/_codecs_hk.cpython-36m-x86_64-linux-gnu.so',
   'EXTENSION'),
  ('_codecs_kr',
   '/usr/lib/python3.6/lib-dynload/_codecs_kr.cpython-36m-x86_64-linux-gnu.so',
   'EXTENSION'),
  ('_codecs_iso2022',
   '/usr/lib/python3.6/lib-dynload/_codecs_iso2022.cpython-36m-x86_64-linux-gnu.so',
   'EXTENSION'),
  ('_multibytecodec',
   '/usr/lib/python3.6/lib-dynload/_multibytecodec.cpython-36m-x86_64-linux-gnu.so',
   'EXTENSION'),
  ('unicodedata',
   '/usr/lib/python3.6/lib-dynload/unicodedata.cpython-36m-x86_64-linux-gnu.so',
   'EXTENSION'),
  ('_heapq',
   '/usr/lib/python3.6/lib-dynload/_heapq.cpython-36m-x86_64-linux-gnu.so',
   'EXTENSION'),
  ('_opcode',
   '/usr/lib/python3.6/lib-dynload/_opcode.cpython-36m-x86_64-linux-gnu.so',
   'EXTENSION'),
  ('readline',
   '/usr/lib/python3.6/lib-dynload/readline.cpython-36m-x86_64-linux-gnu.so',
   'EXTENSION'),
  ('pyexpat',
   '/usr/lib/python3.6/lib-dynload/pyexpat.cpython-36m-x86_64-linux-gnu.so',
   'EXTENSION'),
  ('termios',
   '/usr/lib/python3.6/lib-dynload/termios.cpython-36m-x86_64-linux-gnu.so',
   'EXTENSION'),
  ('_sha1',
   '/usr/lib/python3.6/lib-dynload/_sha1.cpython-36m-x86_64-linux-gnu.so',
   'EXTENSION'),
  ('_md5',
   '/usr/lib/python3.6/lib-dynload/_md5.cpython-36m-x86_64-linux-gnu.so',
   'EXTENSION'),
  ('_sha256',
   '/usr/lib/python3.6/lib-dynload/_sha256.cpython-36m-x86_64-linux-gnu.so',
   'EXTENSION'),
  ('_sha512',
   '/usr/lib/python3.6/lib-dynload/_sha512.cpython-36m-x86_64-linux-gnu.so',
   'EXTENSION'),
  ('_blake2',
   '/usr/lib/python3.6/lib-dynload/_blake2.cpython-36m-x86_64-linux-gnu.so',
   'EXTENSION'),
  ('_sha3',
   '/usr/lib/python3.6/lib-dynload/_sha3.cpython-36m-x86_64-linux-gnu.so',
   'EXTENSION'),
  ('_hashlib',
   '/usr/lib/python3.6/lib-dynload/_hashlib.cpython-36m-x86_64-linux-gnu.so',
   'EXTENSION'),
  ('_bisect',
   '/usr/lib/python3.6/lib-dynload/_bisect.cpython-36m-x86_64-linux-gnu.so',
   'EXTENSION'),
  ('_random',
   '/usr/lib/python3.6/lib-dynload/_random.cpython-36m-x86_64-linux-gnu.so',
   'EXTENSION'),
  ('zlib',
   '/usr/lib/python3.6/lib-dynload/zlib.cpython-36m-x86_64-linux-gnu.so',
   'EXTENSION'),
  ('_bz2',
   '/usr/lib/python3.6/lib-dynload/_bz2.cpython-36m-x86_64-linux-gnu.so',
   'EXTENSION'),
  ('_lzma',
   '/usr/lib/python3.6/lib-dynload/_lzma.cpython-36m-x86_64-linux-gnu.so',
   'EXTENSION'),
  ('grp',
   '/usr/lib/python3.6/lib-dynload/grp.cpython-36m-x86_64-linux-gnu.so',
   'EXTENSION'),
  ('binascii',
   '/usr/lib/python3.6/lib-dynload/binascii.cpython-36m-x86_64-linux-gnu.so',
   'EXTENSION'),
  ('_socket',
   '/usr/lib/python3.6/lib-dynload/_socket.cpython-36m-x86_64-linux-gnu.so',
   'EXTENSION'),
  ('select',
   '/usr/lib/python3.6/lib-dynload/select.cpython-36m-x86_64-linux-gnu.so',
   'EXTENSION'),
  ('math',
   '/usr/lib/python3.6/lib-dynload/math.cpython-36m-x86_64-linux-gnu.so',
   'EXTENSION'),
  ('_struct',
   '/usr/lib/python3.6/lib-dynload/_struct.cpython-36m-x86_64-linux-gnu.so',
   'EXTENSION'),
  ('_csv',
   '/usr/lib/python3.6/lib-dynload/_csv.cpython-36m-x86_64-linux-gnu.so',
   'EXTENSION'),
  ('_sqlite3',
   '/usr/lib/python3.6/lib-dynload/_sqlite3.cpython-36m-x86_64-linux-gnu.so',
   'EXTENSION'),
  ('_elementtree',
   '/usr/lib/python3.6/lib-dynload/_elementtree.cpython-36m-x86_64-linux-gnu.so',
   'EXTENSION'),
  ('PyQt5.QtGui',
   '/home/brian/Projects/copierOrganizer/copierAppEnv/lib/python3.6/site-packages/PyQt5/QtGui.so',
   'EXTENSION'),
  ('sip',
   '/home/brian/Projects/copierOrganizer/copierAppEnv/lib/python3.6/site-packages/sip.so',
   'EXTENSION'),
  ('PyQt5.QtCore',
   '/home/brian/Projects/copierOrganizer/copierAppEnv/lib/python3.6/site-packages/PyQt5/QtCore.so',
   'EXTENSION'),
  ('PyQt5.QtWidgets',
   '/home/brian/Projects/copierOrganizer/copierAppEnv/lib/python3.6/site-packages/PyQt5/QtWidgets.so',
   'EXTENSION'),
  ('PyQt5.Qt',
   '/home/brian/Projects/copierOrganizer/copierAppEnv/lib/python3.6/site-packages/PyQt5/Qt.so',
   'EXTENSION'),
  ('PyQt5.QtPrintSupport',
   '/home/brian/Projects/copierOrganizer/copierAppEnv/lib/python3.6/site-packages/PyQt5/QtPrintSupport.so',
   'EXTENSION'),
  ('libGLdispatch.so.0', '/usr/lib/libGLdispatch.so.0', 'BINARY'),
  ('libQt5Gui.so.5',
   '/home/brian/Projects/copierOrganizer/copierAppEnv/lib/python3.6/site-packages/PyQt5/Qt/plugins/platforms/../../lib/libQt5Gui.so.5',
   'BINARY'),
  ('libgcc_s.so.1', '/usr/lib/libgcc_s.so.1', 'BINARY'),
  ('libexpat.so.1', '/usr/lib/libexpat.so.1', 'BINARY'),
  ('libicui18n.so.56',
   '/home/brian/Projects/copierOrganizer/copierAppEnv/lib/python3.6/site-packages/PyQt5/Qt/plugins/platforms/../../lib/libicui18n.so.56',
   'BINARY'),
  ('libstdc++.so.6', '/usr/lib/libstdc++.so.6', 'BINARY'),
  ('libicudata.so.56',
   '/home/brian/Projects/copierOrganizer/copierAppEnv/lib/python3.6/site-packages/PyQt5/Qt/plugins/platforms/../../lib/libicudata.so.56',
   'BINARY'),
  ('libz.so.1', '/usr/lib/libz.so.1', 'BINARY'),
  ('libXdmcp.so.6', '/usr/lib/libXdmcp.so.6', 'BINARY'),
  ('libbz2.so.1.0', '/usr/lib/libbz2.so.1.0', 'BINARY'),
  ('libharfbuzz.so.0', '/usr/lib/libharfbuzz.so.0', 'BINARY'),
  ('libGLX.so.0', '/usr/lib/libGLX.so.0', 'BINARY'),
  ('libXext.so.6', '/usr/lib/libXext.so.6', 'BINARY'),
  ('libgraphite2.so.3', '/usr/lib/libgraphite2.so.3', 'BINARY'),
  ('libdrm.so.2', '/usr/lib/libdrm.so.2', 'BINARY'),
  ('libglib-2.0.so.0', '/usr/lib/libglib-2.0.so.0', 'BINARY'),
  ('libpcre.so.1', '/usr/lib/libpcre.so.1', 'BINARY'),
  ('libfontconfig.so.1', '/usr/lib/libfontconfig.so.1', 'BINARY'),
  ('libicuuc.so.56',
   '/home/brian/Projects/copierOrganizer/copierAppEnv/lib/python3.6/site-packages/PyQt5/Qt/plugins/platforms/../../lib/libicuuc.so.56',
   'BINARY'),
  ('libfreetype.so.6', '/usr/lib/libfreetype.so.6', 'BINARY'),
  ('libpng16.so.16', '/usr/lib/libpng16.so.16', 'BINARY'),
  ('libXau.so.6', '/usr/lib/libXau.so.6', 'BINARY'),
  ('libX11.so.6', '/usr/lib/libX11.so.6', 'BINARY'),
  ('libgthread-2.0.so.0', '/usr/lib/libgthread-2.0.so.0', 'BINARY'),
  ('libQt5Core.so.5',
   '/home/brian/Projects/copierOrganizer/copierAppEnv/lib/python3.6/site-packages/PyQt5/Qt/plugins/platforms/../../lib/libQt5Core.so.5',
   'BINARY'),
  ('libuuid.so.1', '/usr/lib/libuuid.so.1', 'BINARY'),
  ('libQt5Widgets.so.5',
   '/home/brian/Projects/copierOrganizer/copierAppEnv/lib/python3.6/site-packages/PyQt5/Qt/plugins/iconengines/../../lib/libQt5Widgets.so.5',
   'BINARY'),
  ('libQt5Svg.so.5',
   '/home/brian/Projects/copierOrganizer/copierAppEnv/lib/python3.6/site-packages/PyQt5/Qt/plugins/iconengines/../../lib/libQt5Svg.so.5',
   'BINARY'),
  ('libgcrypt.so.20', '/usr/lib/libgcrypt.so.20', 'BINARY'),
  ('libmtdev.so.1', '/usr/lib/libmtdev.so.1', 'BINARY'),
  ('libinput.so.10', '/usr/lib/libinput.so.10', 'BINARY'),
  ('libQt5EglFSDeviceIntegration.so.5',
   '/usr/lib/libQt5EglFSDeviceIntegration.so.5',
   'BINARY'),
  ('libevdev.so.2', '/usr/lib/libevdev.so.2', 'BINARY'),
  ('libQt5DBus.so.5',
   '/home/brian/Projects/copierOrganizer/copierAppEnv/lib/python3.6/site-packages/PyQt5/Qt/plugins/platforms/../../lib/libQt5DBus.so.5',
   'BINARY'),
  ('libwacom.so.2', '/usr/lib/libwacom.so.2', 'BINARY'),
  ('libEGL.so.1', '/usr/lib/libEGL.so.1', 'BINARY'),
  ('libffi.so.6', '/usr/lib/libffi.so.6', 'BINARY'),
  ('libudev.so.1', '/usr/lib/libudev.so.1', 'BINARY'),
  ('libxkbcommon.so.0', '/usr/lib/libxkbcommon.so.0', 'BINARY'),
  ('libgudev-1.0.so.0', '/usr/lib/libgudev-1.0.so.0', 'BINARY'),
  ('libdbus-1.so.3', '/usr/lib/libdbus-1.so.3', 'BINARY'),
  ('libts.so.0', '/usr/lib/libts.so.0', 'BINARY'),
  ('libgpg-error.so.0', '/usr/lib/libgpg-error.so.0', 'BINARY'),
  ('liblzma.so.5', '/usr/lib/liblzma.so.5', 'BINARY'),
  ('libgobject-2.0.so.0', '/usr/lib/libgobject-2.0.so.0', 'BINARY'),
  ('libsystemd.so.0', '/usr/lib/libsystemd.so.0', 'BINARY'),
  ('liblz4.so.1', '/usr/lib/liblz4.so.1', 'BINARY'),
  ('libQt5Network.so.5',
   '/home/brian/Projects/copierOrganizer/copierAppEnv/lib/python3.6/site-packages/PyQt5/Qt/plugins/platforms/../../lib/libQt5Network.so.5',
   'BINARY'),
  ('libpangoft2-1.0.so.0', '/usr/lib/libpangoft2-1.0.so.0', 'BINARY'),
  ('libwayland-client.so.0', '/usr/lib/libwayland-client.so.0', 'BINARY'),
  ('libwayland-egl.so.1', '/usr/lib/libwayland-egl.so.1', 'BINARY'),
  ('libXrandr.so.2', '/usr/lib/libXrandr.so.2', 'BINARY'),
  ('libwayland-cursor.so.0', '/usr/lib/libwayland-cursor.so.0', 'BINARY'),
  ('libpango-1.0.so.0', '/usr/lib/libpango-1.0.so.0', 'BINARY'),
  ('libatk-1.0.so.0', '/usr/lib/libatk-1.0.so.0', 'BINARY'),
  ('libXi.so.6', '/usr/lib/libXi.so.6', 'BINARY'),
  ('libepoxy.so.0', '/usr/lib/libepoxy.so.0', 'BINARY'),
  ('libXdamage.so.1', '/usr/lib/libXdamage.so.1', 'BINARY'),
  ('libxcb-render.so.0', '/usr/lib/libxcb-render.so.0', 'BINARY'),
  ('libatk-bridge-2.0.so.0', '/usr/lib/libatk-bridge-2.0.so.0', 'BINARY'),
  ('libcairo-gobject.so.2', '/usr/lib/libcairo-gobject.so.2', 'BINARY'),
  ('libgmodule-2.0.so.0', '/usr/lib/libgmodule-2.0.so.0', 'BINARY'),
  ('libXcursor.so.1', '/usr/lib/libXcursor.so.1', 'BINARY'),
  ('libblkid.so.1', '/usr/lib/libblkid.so.1', 'BINARY'),
  ('libXinerama.so.1', '/usr/lib/libXinerama.so.1', 'BINARY'),
  ('libgtk-3.so.0', '/usr/lib/libgtk-3.so.0', 'BINARY'),
  ('libatspi.so.0', '/usr/lib/libatspi.so.0', 'BINARY'),
  ('libXcomposite.so.1', '/usr/lib/libXcomposite.so.1', 'BINARY'),
  ('libpixman-1.so.0', '/usr/lib/libpixman-1.so.0', 'BINARY'),
  ('libgdk-3.so.0', '/usr/lib/libgdk-3.so.0', 'BINARY'),
  ('libfribidi.so.0', '/usr/lib/libfribidi.so.0', 'BINARY'),
  ('libcairo.so.2', '/usr/lib/libcairo.so.2', 'BINARY'),
  ('libXfixes.so.3', '/usr/lib/libXfixes.so.3', 'BINARY'),
  ('libgio-2.0.so.0', '/usr/lib/libgio-2.0.so.0', 'BINARY'),
  ('libXrender.so.1', '/usr/lib/libXrender.so.1', 'BINARY'),
  ('libmount.so.1', '/usr/lib/libmount.so.1', 'BINARY'),
  ('libdatrie.so.1', '/usr/lib/libdatrie.so.1', 'BINARY'),
  ('libthai.so.0', '/usr/lib/libthai.so.0', 'BINARY'),
  ('libgdk_pixbuf-2.0.so.0', '/usr/lib/libgdk_pixbuf-2.0.so.0', 'BINARY'),
  ('libxcb-shm.so.0', '/usr/lib/libxcb-shm.so.0', 'BINARY'),
  ('libpangocairo-1.0.so.0', '/usr/lib/libpangocairo-1.0.so.0', 'BINARY'),
  ('libX11-xcb.so.1', '/usr/lib/libX11-xcb.so.1', 'BINARY'),
  ('libQt5XcbQpa.so.5',
   '/home/brian/Projects/copierOrganizer/copierAppEnv/lib/python3.6/site-packages/PyQt5/Qt/plugins/platforms/../../lib/libQt5XcbQpa.so.5',
   'BINARY'),
  ('libgssapi_krb5.so.2', '/usr/lib/libgssapi_krb5.so.2', 'BINARY'),
  ('libp11-kit.so.0', '/usr/lib/libp11-kit.so.0', 'BINARY'),
  ('libhogweed.so.4', '/usr/lib/libhogweed.so.4', 'BINARY'),
  ('libavahi-client.so.3', '/usr/lib/libavahi-client.so.3', 'BINARY'),
  ('libnettle.so.6', '/usr/lib/libnettle.so.6', 'BINARY'),
  ('libcups.so.2', '/usr/lib/libcups.so.2', 'BINARY'),
  ('libQt5PrintSupport.so.5',
   '/home/brian/Projects/copierOrganizer/copierAppEnv/lib/python3.6/site-packages/PyQt5/Qt/plugins/printsupport/../../lib/libQt5PrintSupport.so.5',
   'BINARY'),
  ('libtasn1.so.6', '/usr/lib/libtasn1.so.6', 'BINARY'),
  ('libgnutls.so.30', '/usr/lib/libgnutls.so.30', 'BINARY'),
  ('libgmp.so.10', '/usr/lib/libgmp.so.10', 'BINARY'),
  ('libavahi-common.so.3', '/usr/lib/libavahi-common.so.3', 'BINARY'),
  ('libkeyutils.so.1', '/usr/lib/libkeyutils.so.1', 'BINARY'),
  ('libk5crypto.so.3', '/usr/lib/libk5crypto.so.3', 'BINARY'),
  ('libkrb5.so.3', '/usr/lib/libkrb5.so.3', 'BINARY'),
  ('libcom_err.so.2', '/usr/lib/libcom_err.so.2', 'BINARY'),
  ('libunistring.so.2', '/usr/lib/libunistring.so.2', 'BINARY'),
  ('libkrb5support.so.0', '/usr/lib/libkrb5support.so.0', 'BINARY'),
  ('libssl.so.1.1', '/usr/lib/libssl.so.1.1', 'BINARY'),
  ('libcrypto.so.1.1', '/usr/lib/libcrypto.so.1.1', 'BINARY'),
  ('libncursesw.so.6', '/usr/lib/libncursesw.so.6', 'BINARY'),
  ('libreadline.so.7', '/usr/lib/libreadline.so.7', 'BINARY'),
  ('libsqlite3.so.0', '/usr/lib/libsqlite3.so.0', 'BINARY'),
  ('libicudata.so.61', '/usr/lib/libicudata.so.61', 'BINARY'),
  ('libicuuc.so.61', '/usr/lib/libicuuc.so.61', 'BINARY'),
  ('libicui18n.so.61', '/usr/lib/libicui18n.so.61', 'BINARY'),
  ('libdouble-conversion.so.1', '/usr/lib/libdouble-conversion.so.1', 'BINARY'),
  ('libpcre2-16.so.0', '/usr/lib/libpcre2-16.so.0', 'BINARY'),
  ('SQL/__pycache__/locations_accounts_join.cpython-36.pyc',
   'source/SQL/__pycache__/locations_accounts_join.cpython-36.pyc',
   'DATA'),
  ('dialogs/__pycache__/copier_dialog.cpython-36.pyc',
   'source/dialogs/__pycache__/copier_dialog.cpython-36.pyc',
   'DATA'),
  ('SQL/__pycache__/account_statements.cpython-36.pyc',
   'source/SQL/__pycache__/account_statements.cpython-36.pyc',
   'DATA'),
  ('SQL/locations_accounts_join.py',
   'source/SQL/locations_accounts_join.py',
   'DATA'),
  ('SQL/copier_database.db', 'source/SQL/copier_database.db', 'DATA'),
  ('SQL/__pycache__/copiers.cpython-36.pyc',
   'source/SQL/__pycache__/copiers.cpython-36.pyc',
   'DATA'),
  ('views/account_dialog.ui', 'source/views/account_dialog.ui', 'DATA'),
  ('SQL/db_interface.py', 'source/SQL/db_interface.py', 'DATA'),
  ('dialogs/__pycache__/location_dialogs.cpython-36.pyc',
   'source/dialogs/__pycache__/location_dialogs.cpython-36.pyc',
   'DATA'),
  ('dialogs/__pycache__/copier_dialogs.cpython-36.pyc',
   'source/dialogs/__pycache__/copier_dialogs.cpython-36.pyc',
   'DATA'),
  ('dialogs/__pycache__/copiers.cpython-36.pyc',
   'source/dialogs/__pycache__/copiers.cpython-36.pyc',
   'DATA'),
  ('dialogs/copier_dialog.py', 'source/dialogs/copier_dialog.py', 'DATA'),
  ('error_handling/error_dialog.py',
   'source/error_handling/error_dialog.py',
   'DATA'),
  ('views/location_dialog.ui', 'source/views/location_dialog.ui', 'DATA'),
  ('SQL/__pycache__/__init__.cpython-36.pyc',
   'source/SQL/__pycache__/__init__.cpython-36.pyc',
   'DATA'),
  ('dialogs/abstract_data_form.py',
   'source/dialogs/abstract_data_form.py',
   'DATA'),
  ('dialogs/account_dialogs.py', 'source/dialogs/account_dialogs.py', 'DATA'),
  ('views/main_page.ui', 'source/views/main_page.ui', 'DATA'),
  ('dialogs/location_dialogs.py', 'source/dialogs/location_dialogs.py', 'DATA'),
  ('dialogs/CSV_dialog.py', 'source/dialogs/CSV_dialog.py', 'DATA'),
  ('SQL/account_statements.py', 'source/SQL/account_statements.py', 'DATA'),
  ('dialogs/admin_dialogs.py', 'source/dialogs/admin_dialogs.py', 'DATA'),
  ('dialogs/__pycache__/CSV_dialog.cpython-36.pyc',
   'source/dialogs/__pycache__/CSV_dialog.cpython-36.pyc',
   'DATA'),
  ('dialogs/README.txt', 'source/dialogs/README.txt', 'DATA'),
  ('SQL/__pycache__/admin_statements.cpython-36.pyc',
   'source/SQL/__pycache__/admin_statements.cpython-36.pyc',
   'DATA'),
  ('SQL/README.txt', 'source/SQL/README.txt', 'DATA'),
  ('error_handling/__pycache__/error_handler.cpython-36.pyc',
   'source/error_handling/__pycache__/error_handler.cpython-36.pyc',
   'DATA'),
  ('error_handling/error_handler.py',
   'source/error_handling/error_handler.py',
   'DATA'),
  ('SQL/admin_statements.py', 'source/SQL/admin_statements.py', 'DATA'),
  ('views/CSV_dialog.ui', 'source/views/CSV_dialog.ui', 'DATA'),
  ('views/add_copiers.ui', 'source/views/add_copiers.ui', 'DATA'),
  ('SQL/__pycache__/copier_statments.cpython-36.pyc',
   'source/SQL/__pycache__/copier_statments.cpython-36.pyc',
   'DATA'),
  ('SQL/copier_statements.py', 'source/SQL/copier_statements.py', 'DATA'),
  ('views/error_dialog.ui', 'source/views/error_dialog.ui', 'DATA'),
  ('SQL/__init__.py', 'source/SQL/__init__.py', 'DATA'),
  ('SQL/__pycache__/copier_statements.cpython-36.pyc',
   'source/SQL/__pycache__/copier_statements.cpython-36.pyc',
   'DATA'),
  ('SQL/location_statements.py', 'source/SQL/location_statements.py', 'DATA'),
  ('dialogs/__pycache__/abstract_data_form.cpython-36.pyc',
   'source/dialogs/__pycache__/abstract_data_form.cpython-36.pyc',
   'DATA'),
  ('SQL/__pycache__/build_tables.cpython-36.pyc',
   'source/SQL/__pycache__/build_tables.cpython-36.pyc',
   'DATA'),
  ('dialogs/__pycache__/__init__.cpython-36.pyc',
   'source/dialogs/__pycache__/__init__.cpython-36.pyc',
   'DATA'),
  ('SQL/__pycache__/location_statements.cpython-36.pyc',
   'source/SQL/__pycache__/location_statements.cpython-36.pyc',
   'DATA'),
  ('SQL/build_tables.py', 'source/SQL/build_tables.py', 'DATA'),
  ('dialogs/__pycache__/account_dialogs.cpython-36.pyc',
   'source/dialogs/__pycache__/account_dialogs.cpython-36.pyc',
   'DATA'),
  ('dialogs/__pycache__/admin_dialogs.cpython-36.pyc',
   'source/dialogs/__pycache__/admin_dialogs.cpython-36.pyc',
   'DATA'),
  ('error_handling/__pycache__/error_dialog.cpython-36.pyc',
   'source/error_handling/__pycache__/error_dialog.cpython-36.pyc',
   'DATA'),
  ('views/admin_dialog.ui', 'source/views/admin_dialog.ui', 'DATA'),
  ('SQL/__pycache__/db_interface.cpython-36.pyc',
   'source/SQL/__pycache__/db_interface.cpython-36.pyc',
   'DATA'),
  ('base_library.zip',
   '/home/brian/Projects/copierOrganizer/build/copier_organizer/base_library.zip',
   'DATA'),
  ('PyQt5/uic/widget-plugins/__pycache__/qtquickwidgets.cpython-36.pyc',
   '/home/brian/Projects/copierOrganizer/copierAppEnv/lib/python3.6/site-packages/PyQt5/uic/widget-plugins/__pycache__/qtquickwidgets.cpython-36.pyc',
   'DATA'),
  ('PyQt5/uic/widget-plugins/qtcharts.py',
   '/home/brian/Projects/copierOrganizer/copierAppEnv/lib/python3.6/site-packages/PyQt5/uic/widget-plugins/qtcharts.py',
   'DATA'),
  ('PyQt5/uic/widget-plugins/qtprintsupport.py',
   '/home/brian/Projects/copierOrganizer/copierAppEnv/lib/python3.6/site-packages/PyQt5/uic/widget-plugins/qtprintsupport.py',
   'DATA'),
  ('PyQt5/uic/widget-plugins/__pycache__/qtprintsupport.cpython-36.pyc',
   '/home/brian/Projects/copierOrganizer/copierAppEnv/lib/python3.6/site-packages/PyQt5/uic/widget-plugins/__pycache__/qtprintsupport.cpython-36.pyc',
   'DATA'),
  ('PyQt5/uic/widget-plugins/__pycache__/qtwebenginewidgets.cpython-36.pyc',
   '/home/brian/Projects/copierOrganizer/copierAppEnv/lib/python3.6/site-packages/PyQt5/uic/widget-plugins/__pycache__/qtwebenginewidgets.cpython-36.pyc',
   'DATA'),
  ('PyQt5/uic/widget-plugins/qtwebenginewidgets.py',
   '/home/brian/Projects/copierOrganizer/copierAppEnv/lib/python3.6/site-packages/PyQt5/uic/widget-plugins/qtwebenginewidgets.py',
   'DATA'),
  ('PyQt5/uic/widget-plugins/qaxcontainer.py',
   '/home/brian/Projects/copierOrganizer/copierAppEnv/lib/python3.6/site-packages/PyQt5/uic/widget-plugins/qaxcontainer.py',
   'DATA'),
  ('PyQt5/uic/widget-plugins/qtquickwidgets.py',
   '/home/brian/Projects/copierOrganizer/copierAppEnv/lib/python3.6/site-packages/PyQt5/uic/widget-plugins/qtquickwidgets.py',
   'DATA'),
  ('PyQt5/uic/widget-plugins/__pycache__/qtwebkit.cpython-36.pyc',
   '/home/brian/Projects/copierOrganizer/copierAppEnv/lib/python3.6/site-packages/PyQt5/uic/widget-plugins/__pycache__/qtwebkit.cpython-36.pyc',
   'DATA'),
  ('PyQt5/uic/widget-plugins/__pycache__/qtcharts.cpython-36.pyc',
   '/home/brian/Projects/copierOrganizer/copierAppEnv/lib/python3.6/site-packages/PyQt5/uic/widget-plugins/__pycache__/qtcharts.cpython-36.pyc',
   'DATA'),
  ('PyQt5/uic/widget-plugins/__pycache__/qscintilla.cpython-36.pyc',
   '/home/brian/Projects/copierOrganizer/copierAppEnv/lib/python3.6/site-packages/PyQt5/uic/widget-plugins/__pycache__/qscintilla.cpython-36.pyc',
   'DATA'),
  ('PyQt5/uic/widget-plugins/__pycache__/qaxcontainer.cpython-36.pyc',
   '/home/brian/Projects/copierOrganizer/copierAppEnv/lib/python3.6/site-packages/PyQt5/uic/widget-plugins/__pycache__/qaxcontainer.cpython-36.pyc',
   'DATA'),
  ('PyQt5/uic/widget-plugins/qtwebkit.py',
   '/home/brian/Projects/copierOrganizer/copierAppEnv/lib/python3.6/site-packages/PyQt5/uic/widget-plugins/qtwebkit.py',
   'DATA'),
  ('PyQt5/uic/widget-plugins/qscintilla.py',
   '/home/brian/Projects/copierOrganizer/copierAppEnv/lib/python3.6/site-packages/PyQt5/uic/widget-plugins/qscintilla.py',
   'DATA')],)
