('source/SQL',
 None,
 [],
 'DATA',
 [('copier_database.db', 'source/SQL/copier_database.db', 'DATA'),
  ('db_interface.py', 'source/SQL/db_interface.py', 'DATA'),
  ('__init__.py', 'source/SQL/__init__.py', 'DATA'),
  ('copier_statements.py', 'source/SQL/copier_statements.py', 'DATA'),
  ('build_tables.py', 'source/SQL/build_tables.py', 'DATA'),
  ('admin_statements.py', 'source/SQL/admin_statements.py', 'DATA'),
  ('__pycache__/__init__.cpython-36.pyc',
   'source/SQL/__pycache__/__init__.cpython-36.pyc',
   'DATA'),
  ('__pycache__/build_tables.cpython-36.pyc',
   'source/SQL/__pycache__/build_tables.cpython-36.pyc',
   'DATA'),
  ('__pycache__/admin_statements.cpython-36.pyc',
   'source/SQL/__pycache__/admin_statements.cpython-36.pyc',
   'DATA'),
  ('__pycache__/copiers.cpython-36.pyc',
   'source/SQL/__pycache__/copiers.cpython-36.pyc',
   'DATA'),
  ('__pycache__/db_interface.cpython-36.pyc',
   'source/SQL/__pycache__/db_interface.cpython-36.pyc',
   'DATA'),
  ('__pycache__/copier_statements.cpython-36.pyc',
   'source/SQL/__pycache__/copier_statements.cpython-36.pyc',
   'DATA'),
  ('__pycache__/copier_statments.cpython-36.pyc',
   'source/SQL/__pycache__/copier_statments.cpython-36.pyc',
   'DATA')])
