('/home/brian/Projects/copierOrganizer/build/copier_organizer/copier_organizer',
 True,
 False,
 True,
 None,
 None,
 False,
 False,
 None,
 True,
 'copier_organizer.pkg',
 [('out00-PYZ.pyz',
   '/home/brian/Projects/copierOrganizer/build/copier_organizer/out00-PYZ.pyz',
   'PYZ'),
  ('_struct',
   '/usr/lib/python3.6/lib-dynload/_struct.cpython-36m-x86_64-linux-gnu.so',
   'EXTENSION'),
  ('zlib',
   '/usr/lib/python3.6/lib-dynload/zlib.cpython-36m-x86_64-linux-gnu.so',
   'EXTENSION'),
  ('struct',
   '/home/brian/Projects/copierOrganizer/build/copier_organizer/localpycos/struct.pyo',
   'PYMODULE'),
  ('pyimod01_os_path',
   '/home/brian/Projects/copierOrganizer/copierAppEnv/lib/python3.6/site-packages/PyInstaller/loader/pyimod01_os_path.pyc',
   'PYMODULE'),
  ('pyimod02_archive',
   '/home/brian/Projects/copierOrganizer/copierAppEnv/lib/python3.6/site-packages/PyInstaller/loader/pyimod02_archive.pyc',
   'PYMODULE'),
  ('pyimod03_importers',
   '/home/brian/Projects/copierOrganizer/copierAppEnv/lib/python3.6/site-packages/PyInstaller/loader/pyimod03_importers.pyc',
   'PYMODULE'),
  ('pyiboot01_bootstrap',
   '/home/brian/Projects/copierOrganizer/copierAppEnv/lib/python3.6/site-packages/PyInstaller/loader/pyiboot01_bootstrap.py',
   'PYSOURCE'),
  ('pyi_rth_qt5',
   '/home/brian/Projects/copierOrganizer/copierAppEnv/lib/python3.6/site-packages/PyInstaller/loader/rthooks/pyi_rth_qt5.py',
   'PYSOURCE'),
  ('copier_organizer',
   '/home/brian/Projects/copierOrganizer/source/copier_organizer.py',
   'PYSOURCE')],
 [],
 False,
 False,
 1524907023,
 [('run',
   '/home/brian/Projects/copierOrganizer/copierAppEnv/lib/python3.6/site-packages/PyInstaller/bootloader/Linux-64bit/run',
   'EXECUTABLE')])
