(['source/copier_organizer.py'],
 ['/home/brian/Projects/copierOrganizer/source',
  '/home/brian/Projects/copierOrganizer'],
 ['codecs'],
 [],
 [],
 [],
 False,
 False,
 '3.6.5 (default, Apr 12 2018, 22:45:43) \n[GCC 7.3.1 20180312]',
 [('pyi_rth_qt5',
   '/home/brian/Projects/copierOrganizer/copierAppEnv/lib/python3.6/site-packages/PyInstaller/loader/rthooks/pyi_rth_qt5.py',
   'PYSOURCE'),
  ('copier_organizer',
   '/home/brian/Projects/copierOrganizer/source/copier_organizer.py',
   'PYSOURCE')],
 [('posixpath', '/usr/lib/python3.6/posixpath.py', 'PYMODULE'),
  ('_strptime', '/usr/lib/python3.6/_strptime.py', 'PYMODULE'),
  ('datetime', '/usr/lib/python3.6/datetime.py', 'PYMODULE'),
  ('stringprep', '/usr/lib/python3.6/stringprep.py', 'PYMODULE'),
  ('stat', '/usr/lib/python3.6/stat.py', 'PYMODULE'),
  ('genericpath', '/usr/lib/python3.6/genericpath.py', 'PYMODULE'),
  ('ntpath', '/usr/lib/python3.6/ntpath.py', 'PYMODULE'),
  ('fnmatch', '/usr/lib/python3.6/fnmatch.py', 'PYMODULE'),
  ('_compat_pickle', '/usr/lib/python3.6/_compat_pickle.py', 'PYMODULE'),
  ('__future__', '/usr/lib/python3.6/__future__.py', 'PYMODULE'),
  ('difflib', '/usr/lib/python3.6/difflib.py', 'PYMODULE'),
  ('ast', '/usr/lib/python3.6/ast.py', 'PYMODULE'),
  ('inspect', '/usr/lib/python3.6/inspect.py', 'PYMODULE'),
  ('cmd', '/usr/lib/python3.6/cmd.py', 'PYMODULE'),
  ('bdb', '/usr/lib/python3.6/bdb.py', 'PYMODULE'),
  ('opcode', '/usr/lib/python3.6/opcode.py', 'PYMODULE'),
  ('dis', '/usr/lib/python3.6/dis.py', 'PYMODULE'),
  ('codeop', '/usr/lib/python3.6/codeop.py', 'PYMODULE'),
  ('code', '/usr/lib/python3.6/code.py', 'PYMODULE'),
  ('glob', '/usr/lib/python3.6/glob.py', 'PYMODULE'),
  ('shlex', '/usr/lib/python3.6/shlex.py', 'PYMODULE'),
  ('importlib._bootstrap',
   '/usr/lib/python3.6/importlib/_bootstrap.py',
   'PYMODULE'),
  ('importlib._bootstrap_external',
   '/usr/lib/python3.6/importlib/_bootstrap_external.py',
   'PYMODULE'),
  ('importlib.machinery',
   '/usr/lib/python3.6/importlib/machinery.py',
   'PYMODULE'),
  ('importlib.util', '/usr/lib/python3.6/importlib/util.py', 'PYMODULE'),
  ('importlib.abc', '/usr/lib/python3.6/importlib/abc.py', 'PYMODULE'),
  ('importlib', '/usr/lib/python3.6/importlib/__init__.py', 'PYMODULE'),
  ('pkgutil', '/usr/lib/python3.6/pkgutil.py', 'PYMODULE'),
  ('xml', '/usr/lib/python3.6/xml/__init__.py', 'PYMODULE'),
  ('xml.sax.expatreader',
   '/usr/lib/python3.6/xml/sax/expatreader.py',
   'PYMODULE'),
  ('xml.sax.saxutils', '/usr/lib/python3.6/xml/sax/saxutils.py', 'PYMODULE'),
  ('urllib.request', '/usr/lib/python3.6/urllib/request.py', 'PYMODULE'),
  ('getpass', '/usr/lib/python3.6/getpass.py', 'PYMODULE'),
  ('nturl2path', '/usr/lib/python3.6/nturl2path.py', 'PYMODULE'),
  ('ftplib', '/usr/lib/python3.6/ftplib.py', 'PYMODULE'),
  ('netrc', '/usr/lib/python3.6/netrc.py', 'PYMODULE'),
  ('http.cookiejar', '/usr/lib/python3.6/http/cookiejar.py', 'PYMODULE'),
  ('urllib.response', '/usr/lib/python3.6/urllib/response.py', 'PYMODULE'),
  ('urllib.error', '/usr/lib/python3.6/urllib/error.py', 'PYMODULE'),
  ('xml.sax', '/usr/lib/python3.6/xml/sax/__init__.py', 'PYMODULE'),
  ('xml.sax.handler', '/usr/lib/python3.6/xml/sax/handler.py', 'PYMODULE'),
  ('xml.sax._exceptions',
   '/usr/lib/python3.6/xml/sax/_exceptions.py',
   'PYMODULE'),
  ('xml.sax.xmlreader', '/usr/lib/python3.6/xml/sax/xmlreader.py', 'PYMODULE'),
  ('xml.parsers', '/usr/lib/python3.6/xml/parsers/__init__.py', 'PYMODULE'),
  ('xml.parsers.expat', '/usr/lib/python3.6/xml/parsers/expat.py', 'PYMODULE'),
  ('plistlib', '/usr/lib/python3.6/plistlib.py', 'PYMODULE'),
  ('platform', '/usr/lib/python3.6/platform.py', 'PYMODULE'),
  ('urllib.parse', '/usr/lib/python3.6/urllib/parse.py', 'PYMODULE'),
  ('tempfile', '/usr/lib/python3.6/tempfile.py', 'PYMODULE'),
  ('tty', '/usr/lib/python3.6/tty.py', 'PYMODULE'),
  ('pydoc_data', '/usr/lib/python3.6/pydoc_data/__init__.py', 'PYMODULE'),
  ('pydoc_data.topics', '/usr/lib/python3.6/pydoc_data/topics.py', 'PYMODULE'),
  ('html.entities', '/usr/lib/python3.6/html/entities.py', 'PYMODULE'),
  ('html', '/usr/lib/python3.6/html/__init__.py', 'PYMODULE'),
  ('ipaddress', '/usr/lib/python3.6/ipaddress.py', 'PYMODULE'),
  ('ssl', '/usr/lib/python3.6/ssl.py', 'PYMODULE'),
  ('http.client', '/usr/lib/python3.6/http/client.py', 'PYMODULE'),
  ('mimetypes', '/usr/lib/python3.6/mimetypes.py', 'PYMODULE'),
  ('socketserver', '/usr/lib/python3.6/socketserver.py', 'PYMODULE'),
  ('http', '/usr/lib/python3.6/http/__init__.py', 'PYMODULE'),
  ('http.server', '/usr/lib/python3.6/http/server.py', 'PYMODULE'),
  ('optparse', '/usr/lib/python3.6/optparse.py', 'PYMODULE'),
  ('uu', '/usr/lib/python3.6/uu.py', 'PYMODULE'),
  ('quopri', '/usr/lib/python3.6/quopri.py', 'PYMODULE'),
  ('email.feedparser', '/usr/lib/python3.6/email/feedparser.py', 'PYMODULE'),
  ('email.parser', '/usr/lib/python3.6/email/parser.py', 'PYMODULE'),
  ('email', '/usr/lib/python3.6/email/__init__.py', 'PYMODULE'),
  ('calendar', '/usr/lib/python3.6/calendar.py', 'PYMODULE'),
  ('email._parseaddr', '/usr/lib/python3.6/email/_parseaddr.py', 'PYMODULE'),
  ('email.utils', '/usr/lib/python3.6/email/utils.py', 'PYMODULE'),
  ('email.errors', '/usr/lib/python3.6/email/errors.py', 'PYMODULE'),
  ('email.header', '/usr/lib/python3.6/email/header.py', 'PYMODULE'),
  ('email._policybase', '/usr/lib/python3.6/email/_policybase.py', 'PYMODULE'),
  ('email.base64mime', '/usr/lib/python3.6/email/base64mime.py', 'PYMODULE'),
  ('email.encoders', '/usr/lib/python3.6/email/encoders.py', 'PYMODULE'),
  ('email.charset', '/usr/lib/python3.6/email/charset.py', 'PYMODULE'),
  ('base64', '/usr/lib/python3.6/base64.py', 'PYMODULE'),
  ('email._encoded_words',
   '/usr/lib/python3.6/email/_encoded_words.py',
   'PYMODULE'),
  ('hashlib', '/usr/lib/python3.6/hashlib.py', 'PYMODULE'),
  ('bisect', '/usr/lib/python3.6/bisect.py', 'PYMODULE'),
  ('random', '/usr/lib/python3.6/random.py', 'PYMODULE'),
  ('email.generator', '/usr/lib/python3.6/email/generator.py', 'PYMODULE'),
  ('email.iterators', '/usr/lib/python3.6/email/iterators.py', 'PYMODULE'),
  ('urllib', '/usr/lib/python3.6/urllib/__init__.py', 'PYMODULE'),
  ('email._header_value_parser',
   '/usr/lib/python3.6/email/_header_value_parser.py',
   'PYMODULE'),
  ('email.headerregistry',
   '/usr/lib/python3.6/email/headerregistry.py',
   'PYMODULE'),
  ('email.quoprimime', '/usr/lib/python3.6/email/quoprimime.py', 'PYMODULE'),
  ('email.contentmanager',
   '/usr/lib/python3.6/email/contentmanager.py',
   'PYMODULE'),
  ('email.policy', '/usr/lib/python3.6/email/policy.py', 'PYMODULE'),
  ('email.message', '/usr/lib/python3.6/email/message.py', 'PYMODULE'),
  ('bz2', '/usr/lib/python3.6/bz2.py', 'PYMODULE'),
  ('lzma', '/usr/lib/python3.6/lzma.py', 'PYMODULE'),
  ('_compression', '/usr/lib/python3.6/_compression.py', 'PYMODULE'),
  ('gzip', '/usr/lib/python3.6/gzip.py', 'PYMODULE'),
  ('tarfile', '/usr/lib/python3.6/tarfile.py', 'PYMODULE'),
  ('py_compile', '/usr/lib/python3.6/py_compile.py', 'PYMODULE'),
  ('zipfile', '/usr/lib/python3.6/zipfile.py', 'PYMODULE'),
  ('shutil', '/usr/lib/python3.6/shutil.py', 'PYMODULE'),
  ('socket', '/usr/lib/python3.6/socket.py', 'PYMODULE'),
  ('webbrowser', '/usr/lib/python3.6/webbrowser.py', 'PYMODULE'),
  ('pydoc', '/usr/lib/python3.6/pydoc.py', 'PYMODULE'),
  ('getopt', '/usr/lib/python3.6/getopt.py', 'PYMODULE'),
  ('pdb', '/usr/lib/python3.6/pdb.py', 'PYMODULE'),
  ('unittest.util', '/usr/lib/python3.6/unittest/util.py', 'PYMODULE'),
  ('unittest.result', '/usr/lib/python3.6/unittest/result.py', 'PYMODULE'),
  ('string', '/usr/lib/python3.6/string.py', 'PYMODULE'),
  ('logging', '/usr/lib/python3.6/logging/__init__.py', 'PYMODULE'),
  ('unittest.case', '/usr/lib/python3.6/unittest/case.py', 'PYMODULE'),
  ('unittest.suite', '/usr/lib/python3.6/unittest/suite.py', 'PYMODULE'),
  ('unittest.loader', '/usr/lib/python3.6/unittest/loader.py', 'PYMODULE'),
  ('unittest.runner', '/usr/lib/python3.6/unittest/runner.py', 'PYMODULE'),
  ('unittest.main', '/usr/lib/python3.6/unittest/main.py', 'PYMODULE'),
  ('unittest.signals', '/usr/lib/python3.6/unittest/signals.py', 'PYMODULE'),
  ('unittest', '/usr/lib/python3.6/unittest/__init__.py', 'PYMODULE'),
  ('doctest', '/usr/lib/python3.6/doctest.py', 'PYMODULE'),
  ('pprint', '/usr/lib/python3.6/pprint.py', 'PYMODULE'),
  ('pickle', '/usr/lib/python3.6/pickle.py', 'PYMODULE'),
  ('tracemalloc', '/usr/lib/python3.6/tracemalloc.py', 'PYMODULE'),
  ('warnings', '/usr/lib/python3.6/warnings.py', 'PYMODULE'),
  ('enum', '/usr/lib/python3.6/enum.py', 'PYMODULE'),
  ('signal', '/usr/lib/python3.6/signal.py', 'PYMODULE'),
  ('contextlib', '/usr/lib/python3.6/contextlib.py', 'PYMODULE'),
  ('_threading_local', '/usr/lib/python3.6/_threading_local.py', 'PYMODULE'),
  ('threading', '/usr/lib/python3.6/threading.py', 'PYMODULE'),
  ('selectors', '/usr/lib/python3.6/selectors.py', 'PYMODULE'),
  ('_dummy_thread', '/usr/lib/python3.6/_dummy_thread.py', 'PYMODULE'),
  ('dummy_threading', '/usr/lib/python3.6/dummy_threading.py', 'PYMODULE'),
  ('subprocess', '/usr/lib/python3.6/subprocess.py', 'PYMODULE'),
  ('token', '/usr/lib/python3.6/token.py', 'PYMODULE'),
  ('copy', '/usr/lib/python3.6/copy.py', 'PYMODULE'),
  ('textwrap', '/usr/lib/python3.6/textwrap.py', 'PYMODULE'),
  ('struct', '/usr/lib/python3.6/struct.py', 'PYMODULE'),
  ('gettext', '/usr/lib/python3.6/gettext.py', 'PYMODULE'),
  ('argparse', '/usr/lib/python3.6/argparse.py', 'PYMODULE'),
  ('tokenize', '/usr/lib/python3.6/tokenize.py', 'PYMODULE'),
  ('csv_writer.csv_builder',
   '/home/brian/Projects/copierOrganizer/source/csv_writer/csv_builder.py',
   'PYMODULE'),
  ('csv_writer', '-', 'PYMODULE'),
  ('csv', '/usr/lib/python3.6/csv.py', 'PYMODULE'),
  ('dialogs.CSV_dialog',
   '/home/brian/Projects/copierOrganizer/source/dialogs/CSV_dialog.py',
   'PYMODULE'),
  ('dialogs', '-', 'PYMODULE'),
  ('dialogs.abstract_data_form',
   '/home/brian/Projects/copierOrganizer/source/dialogs/abstract_data_form.py',
   'PYMODULE'),
  ('dialogs.location_dialogs',
   '/home/brian/Projects/copierOrganizer/source/dialogs/location_dialogs.py',
   'PYMODULE'),
  ('dialogs.account_dialogs',
   '/home/brian/Projects/copierOrganizer/source/dialogs/account_dialogs.py',
   'PYMODULE'),
  ('dialogs.admin_dialogs',
   '/home/brian/Projects/copierOrganizer/source/dialogs/admin_dialogs.py',
   'PYMODULE'),
  ('dialogs.copier_dialog',
   '/home/brian/Projects/copierOrganizer/source/dialogs/copier_dialog.py',
   'PYMODULE'),
  ('error_handling.error_handler',
   '/home/brian/Projects/copierOrganizer/source/error_handling/error_handler.py',
   'PYMODULE'),
  ('error_handling', '-', 'PYMODULE'),
  ('error_handling.error_dialog',
   '/home/brian/Projects/copierOrganizer/source/error_handling/error_dialog.py',
   'PYMODULE'),
  ('SQL.locations_accounts_join',
   '/home/brian/Projects/copierOrganizer/source/SQL/locations_accounts_join.py',
   'PYMODULE'),
  ('SQL.db_interface',
   '/home/brian/Projects/copierOrganizer/source/SQL/db_interface.py',
   'PYMODULE'),
  ('sqlite3', '/usr/lib/python3.6/sqlite3/__init__.py', 'PYMODULE'),
  ('sqlite3.dump', '/usr/lib/python3.6/sqlite3/dump.py', 'PYMODULE'),
  ('sqlite3.dbapi2', '/usr/lib/python3.6/sqlite3/dbapi2.py', 'PYMODULE'),
  ('SQL.account_statements',
   '/home/brian/Projects/copierOrganizer/source/SQL/account_statements.py',
   'PYMODULE'),
  ('SQL.location_statements',
   '/home/brian/Projects/copierOrganizer/source/SQL/location_statements.py',
   'PYMODULE'),
  ('SQL.admin_statements',
   '/home/brian/Projects/copierOrganizer/source/SQL/admin_statements.py',
   'PYMODULE'),
  ('SQL.copier_statements',
   '/home/brian/Projects/copierOrganizer/source/SQL/copier_statements.py',
   'PYMODULE'),
  ('SQL.build_tables',
   '/home/brian/Projects/copierOrganizer/source/SQL/build_tables.py',
   'PYMODULE'),
  ('SQL',
   '/home/brian/Projects/copierOrganizer/source/SQL/__init__.py',
   'PYMODULE'),
  ('PyQt5.uic',
   '/home/brian/Projects/copierOrganizer/copierAppEnv/lib/python3.6/site-packages/PyQt5/uic/__init__.py',
   'PYMODULE'),
  ('PyQt5.uic.objcreator',
   '/home/brian/Projects/copierOrganizer/copierAppEnv/lib/python3.6/site-packages/PyQt5/uic/objcreator.py',
   'PYMODULE'),
  ('PyQt5.uic.exceptions',
   '/home/brian/Projects/copierOrganizer/copierAppEnv/lib/python3.6/site-packages/PyQt5/uic/exceptions.py',
   'PYMODULE'),
  ('PyQt5.uic.Loader.loader',
   '/home/brian/Projects/copierOrganizer/copierAppEnv/lib/python3.6/site-packages/PyQt5/uic/Loader/loader.py',
   'PYMODULE'),
  ('PyQt5.uic.Loader',
   '/home/brian/Projects/copierOrganizer/copierAppEnv/lib/python3.6/site-packages/PyQt5/uic/Loader/__init__.py',
   'PYMODULE'),
  ('PyQt5.uic.Loader.qobjectcreator',
   '/home/brian/Projects/copierOrganizer/copierAppEnv/lib/python3.6/site-packages/PyQt5/uic/Loader/qobjectcreator.py',
   'PYMODULE'),
  ('PyQt5.uic.uiparser',
   '/home/brian/Projects/copierOrganizer/copierAppEnv/lib/python3.6/site-packages/PyQt5/uic/uiparser.py',
   'PYMODULE'),
  ('PyQt5.uic.properties',
   '/home/brian/Projects/copierOrganizer/copierAppEnv/lib/python3.6/site-packages/PyQt5/uic/properties.py',
   'PYMODULE'),
  ('PyQt5.uic.port_v3.ascii_upper',
   '/home/brian/Projects/copierOrganizer/copierAppEnv/lib/python3.6/site-packages/PyQt5/uic/port_v3/ascii_upper.py',
   'PYMODULE'),
  ('PyQt5.uic.port_v3',
   '/home/brian/Projects/copierOrganizer/copierAppEnv/lib/python3.6/site-packages/PyQt5/uic/port_v3/__init__.py',
   'PYMODULE'),
  ('PyQt5.uic.icon_cache',
   '/home/brian/Projects/copierOrganizer/copierAppEnv/lib/python3.6/site-packages/PyQt5/uic/icon_cache.py',
   'PYMODULE'),
  ('xml.etree.ElementTree',
   '/usr/lib/python3.6/xml/etree/ElementTree.py',
   'PYMODULE'),
  ('xml.etree.ElementInclude',
   '/usr/lib/python3.6/xml/etree/ElementInclude.py',
   'PYMODULE'),
  ('xml.etree.cElementTree',
   '/usr/lib/python3.6/xml/etree/cElementTree.py',
   'PYMODULE'),
  ('xml.etree.ElementPath',
   '/usr/lib/python3.6/xml/etree/ElementPath.py',
   'PYMODULE'),
  ('xml.etree', '/usr/lib/python3.6/xml/etree/__init__.py', 'PYMODULE'),
  ('PyQt5.uic.port_v2.string_io',
   '/home/brian/Projects/copierOrganizer/copierAppEnv/lib/python3.6/site-packages/PyQt5/uic/port_v2/string_io.py',
   'PYMODULE'),
  ('PyQt5.uic.port_v2',
   '/home/brian/Projects/copierOrganizer/copierAppEnv/lib/python3.6/site-packages/PyQt5/uic/port_v2/__init__.py',
   'PYMODULE'),
  ('PyQt5.uic.port_v3.string_io',
   '/home/brian/Projects/copierOrganizer/copierAppEnv/lib/python3.6/site-packages/PyQt5/uic/port_v3/string_io.py',
   'PYMODULE'),
  ('PyQt5.uic.Compiler.compiler',
   '/home/brian/Projects/copierOrganizer/copierAppEnv/lib/python3.6/site-packages/PyQt5/uic/Compiler/compiler.py',
   'PYMODULE'),
  ('PyQt5.uic.Compiler.qobjectcreator',
   '/home/brian/Projects/copierOrganizer/copierAppEnv/lib/python3.6/site-packages/PyQt5/uic/Compiler/qobjectcreator.py',
   'PYMODULE'),
  ('PyQt5.uic.port_v2.as_string',
   '/home/brian/Projects/copierOrganizer/copierAppEnv/lib/python3.6/site-packages/PyQt5/uic/port_v2/as_string.py',
   'PYMODULE'),
  ('PyQt5.uic.port_v3.as_string',
   '/home/brian/Projects/copierOrganizer/copierAppEnv/lib/python3.6/site-packages/PyQt5/uic/port_v3/as_string.py',
   'PYMODULE'),
  ('PyQt5.uic.Compiler.qtproxies',
   '/home/brian/Projects/copierOrganizer/copierAppEnv/lib/python3.6/site-packages/PyQt5/uic/Compiler/qtproxies.py',
   'PYMODULE'),
  ('PyQt5.uic.port_v2.proxy_base',
   '/home/brian/Projects/copierOrganizer/copierAppEnv/lib/python3.6/site-packages/PyQt5/uic/port_v2/proxy_base.py',
   'PYMODULE'),
  ('PyQt5.uic.Compiler.proxy_metaclass',
   '/home/brian/Projects/copierOrganizer/copierAppEnv/lib/python3.6/site-packages/PyQt5/uic/Compiler/proxy_metaclass.py',
   'PYMODULE'),
  ('PyQt5.uic.port_v3.proxy_base',
   '/home/brian/Projects/copierOrganizer/copierAppEnv/lib/python3.6/site-packages/PyQt5/uic/port_v3/proxy_base.py',
   'PYMODULE'),
  ('PyQt5.uic.Compiler.misc',
   '/home/brian/Projects/copierOrganizer/copierAppEnv/lib/python3.6/site-packages/PyQt5/uic/Compiler/misc.py',
   'PYMODULE'),
  ('PyQt5.uic.Compiler.indenter',
   '/home/brian/Projects/copierOrganizer/copierAppEnv/lib/python3.6/site-packages/PyQt5/uic/Compiler/indenter.py',
   'PYMODULE'),
  ('PyQt5.uic.Compiler',
   '/home/brian/Projects/copierOrganizer/copierAppEnv/lib/python3.6/site-packages/PyQt5/uic/Compiler/__init__.py',
   'PYMODULE'),
  ('PyQt5',
   '/home/brian/Projects/copierOrganizer/copierAppEnv/lib/python3.6/site-packages/PyQt5/__init__.py',
   'PYMODULE'),
  ('os', '/usr/lib/python3.6/os.py', 'PYMODULE')],
 [('ld-linux-x86-64.so.2', '/usr/lib64/ld-linux-x86-64.so.2', 'BINARY'),
  ('libpython3.6m.so.1.0', '/usr/lib/libpython3.6m.so.1.0', 'BINARY'),
  ('PyQt5/Qt/plugins/platforms/libqlinuxfb.so',
   '/home/brian/Projects/copierOrganizer/copierAppEnv/lib/python3.6/site-packages/PyQt5/Qt/plugins/platforms/libqlinuxfb.so',
   'BINARY'),
  ('PyQt5/Qt/plugins/platforms/libqminimal.so',
   '/home/brian/Projects/copierOrganizer/copierAppEnv/lib/python3.6/site-packages/PyQt5/Qt/plugins/platforms/libqminimal.so',
   'BINARY'),
  ('PyQt5/Qt/plugins/platforms/libqoffscreen.so',
   '/home/brian/Projects/copierOrganizer/copierAppEnv/lib/python3.6/site-packages/PyQt5/Qt/plugins/platforms/libqoffscreen.so',
   'BINARY'),
  ('PyQt5/Qt/plugins/iconengines/libqsvgicon.so',
   '/home/brian/Projects/copierOrganizer/copierAppEnv/lib/python3.6/site-packages/PyQt5/Qt/plugins/iconengines/libqsvgicon.so',
   'BINARY'),
  ('PyQt5/Qt/plugins/imageformats/libqicns.so',
   '/home/brian/Projects/copierOrganizer/copierAppEnv/lib/python3.6/site-packages/PyQt5/Qt/plugins/imageformats/libqicns.so',
   'BINARY'),
  ('PyQt5/Qt/plugins/imageformats/libqjpeg.so',
   '/home/brian/Projects/copierOrganizer/copierAppEnv/lib/python3.6/site-packages/PyQt5/Qt/plugins/imageformats/libqjpeg.so',
   'BINARY'),
  ('PyQt5/Qt/plugins/platforms/libqeglfs.so',
   '/home/brian/Projects/copierOrganizer/copierAppEnv/lib/python3.6/site-packages/PyQt5/Qt/plugins/platforms/libqeglfs.so',
   'BINARY'),
  ('PyQt5/Qt/plugins/platforms/libqvnc.so',
   '/home/brian/Projects/copierOrganizer/copierAppEnv/lib/python3.6/site-packages/PyQt5/Qt/plugins/platforms/libqvnc.so',
   'BINARY'),
  ('PyQt5/Qt/plugins/platformthemes/libqgtk3.so',
   '/home/brian/Projects/copierOrganizer/copierAppEnv/lib/python3.6/site-packages/PyQt5/Qt/plugins/platformthemes/libqgtk3.so',
   'BINARY'),
  ('PyQt5/Qt/plugins/imageformats/libqico.so',
   '/home/brian/Projects/copierOrganizer/copierAppEnv/lib/python3.6/site-packages/PyQt5/Qt/plugins/imageformats/libqico.so',
   'BINARY'),
  ('PyQt5/Qt/plugins/imageformats/libqwebp.so',
   '/home/brian/Projects/copierOrganizer/copierAppEnv/lib/python3.6/site-packages/PyQt5/Qt/plugins/imageformats/libqwebp.so',
   'BINARY'),
  ('PyQt5/Qt/plugins/platforms/libqxcb.so',
   '/home/brian/Projects/copierOrganizer/copierAppEnv/lib/python3.6/site-packages/PyQt5/Qt/plugins/platforms/libqxcb.so',
   'BINARY'),
  ('PyQt5/Qt/plugins/platforms/libqminimalegl.so',
   '/home/brian/Projects/copierOrganizer/copierAppEnv/lib/python3.6/site-packages/PyQt5/Qt/plugins/platforms/libqminimalegl.so',
   'BINARY'),
  ('PyQt5/Qt/plugins/imageformats/libqgif.so',
   '/home/brian/Projects/copierOrganizer/copierAppEnv/lib/python3.6/site-packages/PyQt5/Qt/plugins/imageformats/libqgif.so',
   'BINARY'),
  ('PyQt5/Qt/plugins/imageformats/libqtga.so',
   '/home/brian/Projects/copierOrganizer/copierAppEnv/lib/python3.6/site-packages/PyQt5/Qt/plugins/imageformats/libqtga.so',
   'BINARY'),
  ('PyQt5/Qt/plugins/imageformats/libqtiff.so',
   '/home/brian/Projects/copierOrganizer/copierAppEnv/lib/python3.6/site-packages/PyQt5/Qt/plugins/imageformats/libqtiff.so',
   'BINARY'),
  ('PyQt5/Qt/plugins/printsupport/libcupsprintersupport.so',
   '/home/brian/Projects/copierOrganizer/copierAppEnv/lib/python3.6/site-packages/PyQt5/Qt/plugins/printsupport/libcupsprintersupport.so',
   'BINARY'),
  ('PyQt5/Qt/plugins/imageformats/libqwbmp.so',
   '/home/brian/Projects/copierOrganizer/copierAppEnv/lib/python3.6/site-packages/PyQt5/Qt/plugins/imageformats/libqwbmp.so',
   'BINARY'),
  ('PyQt5/Qt/plugins/imageformats/libqsvg.so',
   '/home/brian/Projects/copierOrganizer/copierAppEnv/lib/python3.6/site-packages/PyQt5/Qt/plugins/imageformats/libqsvg.so',
   'BINARY'),
  ('resource',
   '/usr/lib/python3.6/lib-dynload/resource.cpython-36m-x86_64-linux-gnu.so',
   'EXTENSION'),
  ('_posixsubprocess',
   '/usr/lib/python3.6/lib-dynload/_posixsubprocess.cpython-36m-x86_64-linux-gnu.so',
   'EXTENSION'),
  ('_pickle',
   '/usr/lib/python3.6/lib-dynload/_pickle.cpython-36m-x86_64-linux-gnu.so',
   'EXTENSION'),
  ('_datetime',
   '/usr/lib/python3.6/lib-dynload/_datetime.cpython-36m-x86_64-linux-gnu.so',
   'EXTENSION'),
  ('_ssl',
   '/usr/lib/python3.6/lib-dynload/_ssl.cpython-36m-x86_64-linux-gnu.so',
   'EXTENSION'),
  ('_codecs_tw',
   '/usr/lib/python3.6/lib-dynload/_codecs_tw.cpython-36m-x86_64-linux-gnu.so',
   'EXTENSION'),
  ('_codecs_jp',
   '/usr/lib/python3.6/lib-dynload/_codecs_jp.cpython-36m-x86_64-linux-gnu.so',
   'EXTENSION'),
  ('_codecs_cn',
   '/usr/lib/python3.6/lib-dynload/_codecs_cn.cpython-36m-x86_64-linux-gnu.so',
   'EXTENSION'),
  ('_codecs_hk',
   '/usr/lib/python3.6/lib-dynload/_codecs_hk.cpython-36m-x86_64-linux-gnu.so',
   'EXTENSION'),
  ('_codecs_kr',
   '/usr/lib/python3.6/lib-dynload/_codecs_kr.cpython-36m-x86_64-linux-gnu.so',
   'EXTENSION'),
  ('_codecs_iso2022',
   '/usr/lib/python3.6/lib-dynload/_codecs_iso2022.cpython-36m-x86_64-linux-gnu.so',
   'EXTENSION'),
  ('_multibytecodec',
   '/usr/lib/python3.6/lib-dynload/_multibytecodec.cpython-36m-x86_64-linux-gnu.so',
   'EXTENSION'),
  ('unicodedata',
   '/usr/lib/python3.6/lib-dynload/unicodedata.cpython-36m-x86_64-linux-gnu.so',
   'EXTENSION'),
  ('_heapq',
   '/usr/lib/python3.6/lib-dynload/_heapq.cpython-36m-x86_64-linux-gnu.so',
   'EXTENSION'),
  ('_opcode',
   '/usr/lib/python3.6/lib-dynload/_opcode.cpython-36m-x86_64-linux-gnu.so',
   'EXTENSION'),
  ('readline',
   '/usr/lib/python3.6/lib-dynload/readline.cpython-36m-x86_64-linux-gnu.so',
   'EXTENSION'),
  ('pyexpat',
   '/usr/lib/python3.6/lib-dynload/pyexpat.cpython-36m-x86_64-linux-gnu.so',
   'EXTENSION'),
  ('termios',
   '/usr/lib/python3.6/lib-dynload/termios.cpython-36m-x86_64-linux-gnu.so',
   'EXTENSION'),
  ('_sha1',
   '/usr/lib/python3.6/lib-dynload/_sha1.cpython-36m-x86_64-linux-gnu.so',
   'EXTENSION'),
  ('_md5',
   '/usr/lib/python3.6/lib-dynload/_md5.cpython-36m-x86_64-linux-gnu.so',
   'EXTENSION'),
  ('_sha256',
   '/usr/lib/python3.6/lib-dynload/_sha256.cpython-36m-x86_64-linux-gnu.so',
   'EXTENSION'),
  ('_sha512',
   '/usr/lib/python3.6/lib-dynload/_sha512.cpython-36m-x86_64-linux-gnu.so',
   'EXTENSION'),
  ('_blake2',
   '/usr/lib/python3.6/lib-dynload/_blake2.cpython-36m-x86_64-linux-gnu.so',
   'EXTENSION'),
  ('_sha3',
   '/usr/lib/python3.6/lib-dynload/_sha3.cpython-36m-x86_64-linux-gnu.so',
   'EXTENSION'),
  ('_hashlib',
   '/usr/lib/python3.6/lib-dynload/_hashlib.cpython-36m-x86_64-linux-gnu.so',
   'EXTENSION'),
  ('_bisect',
   '/usr/lib/python3.6/lib-dynload/_bisect.cpython-36m-x86_64-linux-gnu.so',
   'EXTENSION'),
  ('_random',
   '/usr/lib/python3.6/lib-dynload/_random.cpython-36m-x86_64-linux-gnu.so',
   'EXTENSION'),
  ('zlib',
   '/usr/lib/python3.6/lib-dynload/zlib.cpython-36m-x86_64-linux-gnu.so',
   'EXTENSION'),
  ('_bz2',
   '/usr/lib/python3.6/lib-dynload/_bz2.cpython-36m-x86_64-linux-gnu.so',
   'EXTENSION'),
  ('_lzma',
   '/usr/lib/python3.6/lib-dynload/_lzma.cpython-36m-x86_64-linux-gnu.so',
   'EXTENSION'),
  ('grp',
   '/usr/lib/python3.6/lib-dynload/grp.cpython-36m-x86_64-linux-gnu.so',
   'EXTENSION'),
  ('binascii',
   '/usr/lib/python3.6/lib-dynload/binascii.cpython-36m-x86_64-linux-gnu.so',
   'EXTENSION'),
  ('_socket',
   '/usr/lib/python3.6/lib-dynload/_socket.cpython-36m-x86_64-linux-gnu.so',
   'EXTENSION'),
  ('select',
   '/usr/lib/python3.6/lib-dynload/select.cpython-36m-x86_64-linux-gnu.so',
   'EXTENSION'),
  ('math',
   '/usr/lib/python3.6/lib-dynload/math.cpython-36m-x86_64-linux-gnu.so',
   'EXTENSION'),
  ('_struct',
   '/usr/lib/python3.6/lib-dynload/_struct.cpython-36m-x86_64-linux-gnu.so',
   'EXTENSION'),
  ('_csv',
   '/usr/lib/python3.6/lib-dynload/_csv.cpython-36m-x86_64-linux-gnu.so',
   'EXTENSION'),
  ('_sqlite3',
   '/usr/lib/python3.6/lib-dynload/_sqlite3.cpython-36m-x86_64-linux-gnu.so',
   'EXTENSION'),
  ('_elementtree',
   '/usr/lib/python3.6/lib-dynload/_elementtree.cpython-36m-x86_64-linux-gnu.so',
   'EXTENSION'),
  ('PyQt5.QtGui',
   '/home/brian/Projects/copierOrganizer/copierAppEnv/lib/python3.6/site-packages/PyQt5/QtGui.so',
   'EXTENSION'),
  ('sip',
   '/home/brian/Projects/copierOrganizer/copierAppEnv/lib/python3.6/site-packages/sip.so',
   'EXTENSION'),
  ('PyQt5.QtCore',
   '/home/brian/Projects/copierOrganizer/copierAppEnv/lib/python3.6/site-packages/PyQt5/QtCore.so',
   'EXTENSION'),
  ('PyQt5.QtWidgets',
   '/home/brian/Projects/copierOrganizer/copierAppEnv/lib/python3.6/site-packages/PyQt5/QtWidgets.so',
   'EXTENSION'),
  ('PyQt5.Qt',
   '/home/brian/Projects/copierOrganizer/copierAppEnv/lib/python3.6/site-packages/PyQt5/Qt.so',
   'EXTENSION'),
  ('PyQt5.QtPrintSupport',
   '/home/brian/Projects/copierOrganizer/copierAppEnv/lib/python3.6/site-packages/PyQt5/QtPrintSupport.so',
   'EXTENSION'),
  ('libGLdispatch.so.0', '/usr/lib/libGLdispatch.so.0', 'BINARY'),
  ('libQt5Gui.so.5',
   '/home/brian/Projects/copierOrganizer/copierAppEnv/lib/python3.6/site-packages/PyQt5/Qt/plugins/platforms/../../lib/libQt5Gui.so.5',
   'BINARY'),
  ('libgcc_s.so.1', '/usr/lib/libgcc_s.so.1', 'BINARY'),
  ('libexpat.so.1', '/usr/lib/libexpat.so.1', 'BINARY'),
  ('libicui18n.so.56',
   '/home/brian/Projects/copierOrganizer/copierAppEnv/lib/python3.6/site-packages/PyQt5/Qt/plugins/platforms/../../lib/libicui18n.so.56',
   'BINARY'),
  ('libstdc++.so.6', '/usr/lib/libstdc++.so.6', 'BINARY'),
  ('libicudata.so.56',
   '/home/brian/Projects/copierOrganizer/copierAppEnv/lib/python3.6/site-packages/PyQt5/Qt/plugins/platforms/../../lib/libicudata.so.56',
   'BINARY'),
  ('libz.so.1', '/usr/lib/libz.so.1', 'BINARY'),
  ('libXdmcp.so.6', '/usr/lib/libXdmcp.so.6', 'BINARY'),
  ('libbz2.so.1.0', '/usr/lib/libbz2.so.1.0', 'BINARY'),
  ('libharfbuzz.so.0', '/usr/lib/libharfbuzz.so.0', 'BINARY'),
  ('libGLX.so.0', '/usr/lib/libGLX.so.0', 'BINARY'),
  ('libXext.so.6', '/usr/lib/libXext.so.6', 'BINARY'),
  ('libgraphite2.so.3', '/usr/lib/libgraphite2.so.3', 'BINARY'),
  ('libdrm.so.2', '/usr/lib/libdrm.so.2', 'BINARY'),
  ('libglib-2.0.so.0', '/usr/lib/libglib-2.0.so.0', 'BINARY'),
  ('libpcre.so.1', '/usr/lib/libpcre.so.1', 'BINARY'),
  ('libfontconfig.so.1', '/usr/lib/libfontconfig.so.1', 'BINARY'),
  ('libicuuc.so.56',
   '/home/brian/Projects/copierOrganizer/copierAppEnv/lib/python3.6/site-packages/PyQt5/Qt/plugins/platforms/../../lib/libicuuc.so.56',
   'BINARY'),
  ('libfreetype.so.6', '/usr/lib/libfreetype.so.6', 'BINARY'),
  ('libpng16.so.16', '/usr/lib/libpng16.so.16', 'BINARY'),
  ('libXau.so.6', '/usr/lib/libXau.so.6', 'BINARY'),
  ('libX11.so.6', '/usr/lib/libX11.so.6', 'BINARY'),
  ('libgthread-2.0.so.0', '/usr/lib/libgthread-2.0.so.0', 'BINARY'),
  ('libQt5Core.so.5',
   '/home/brian/Projects/copierOrganizer/copierAppEnv/lib/python3.6/site-packages/PyQt5/Qt/plugins/platforms/../../lib/libQt5Core.so.5',
   'BINARY'),
  ('libuuid.so.1', '/usr/lib/libuuid.so.1', 'BINARY'),
  ('libQt5Widgets.so.5',
   '/home/brian/Projects/copierOrganizer/copierAppEnv/lib/python3.6/site-packages/PyQt5/Qt/plugins/iconengines/../../lib/libQt5Widgets.so.5',
   'BINARY'),
  ('libQt5Svg.so.5',
   '/home/brian/Projects/copierOrganizer/copierAppEnv/lib/python3.6/site-packages/PyQt5/Qt/plugins/iconengines/../../lib/libQt5Svg.so.5',
   'BINARY'),
  ('libgcrypt.so.20', '/usr/lib/libgcrypt.so.20', 'BINARY'),
  ('libmtdev.so.1', '/usr/lib/libmtdev.so.1', 'BINARY'),
  ('libinput.so.10', '/usr/lib/libinput.so.10', 'BINARY'),
  ('libQt5EglFSDeviceIntegration.so.5',
   '/usr/lib/libQt5EglFSDeviceIntegration.so.5',
   'BINARY'),
  ('libevdev.so.2', '/usr/lib/libevdev.so.2', 'BINARY'),
  ('libQt5DBus.so.5',
   '/home/brian/Projects/copierOrganizer/copierAppEnv/lib/python3.6/site-packages/PyQt5/Qt/plugins/platforms/../../lib/libQt5DBus.so.5',
   'BINARY'),
  ('libwacom.so.2', '/usr/lib/libwacom.so.2', 'BINARY'),
  ('libEGL.so.1', '/usr/lib/libEGL.so.1', 'BINARY'),
  ('libffi.so.6', '/usr/lib/libffi.so.6', 'BINARY'),
  ('libudev.so.1', '/usr/lib/libudev.so.1', 'BINARY'),
  ('libxkbcommon.so.0', '/usr/lib/libxkbcommon.so.0', 'BINARY'),
  ('libgudev-1.0.so.0', '/usr/lib/libgudev-1.0.so.0', 'BINARY'),
  ('libdbus-1.so.3', '/usr/lib/libdbus-1.so.3', 'BINARY'),
  ('libts.so.0', '/usr/lib/libts.so.0', 'BINARY'),
  ('libgpg-error.so.0', '/usr/lib/libgpg-error.so.0', 'BINARY'),
  ('liblzma.so.5', '/usr/lib/liblzma.so.5', 'BINARY'),
  ('libgobject-2.0.so.0', '/usr/lib/libgobject-2.0.so.0', 'BINARY'),
  ('libsystemd.so.0', '/usr/lib/libsystemd.so.0', 'BINARY'),
  ('liblz4.so.1', '/usr/lib/liblz4.so.1', 'BINARY'),
  ('libQt5Network.so.5',
   '/home/brian/Projects/copierOrganizer/copierAppEnv/lib/python3.6/site-packages/PyQt5/Qt/plugins/platforms/../../lib/libQt5Network.so.5',
   'BINARY'),
  ('libpangoft2-1.0.so.0', '/usr/lib/libpangoft2-1.0.so.0', 'BINARY'),
  ('libwayland-client.so.0', '/usr/lib/libwayland-client.so.0', 'BINARY'),
  ('libwayland-egl.so.1', '/usr/lib/libwayland-egl.so.1', 'BINARY'),
  ('libXrandr.so.2', '/usr/lib/libXrandr.so.2', 'BINARY'),
  ('libwayland-cursor.so.0', '/usr/lib/libwayland-cursor.so.0', 'BINARY'),
  ('libpango-1.0.so.0', '/usr/lib/libpango-1.0.so.0', 'BINARY'),
  ('libatk-1.0.so.0', '/usr/lib/libatk-1.0.so.0', 'BINARY'),
  ('libXi.so.6', '/usr/lib/libXi.so.6', 'BINARY'),
  ('libepoxy.so.0', '/usr/lib/libepoxy.so.0', 'BINARY'),
  ('libXdamage.so.1', '/usr/lib/libXdamage.so.1', 'BINARY'),
  ('libxcb-render.so.0', '/usr/lib/libxcb-render.so.0', 'BINARY'),
  ('libatk-bridge-2.0.so.0', '/usr/lib/libatk-bridge-2.0.so.0', 'BINARY'),
  ('libcairo-gobject.so.2', '/usr/lib/libcairo-gobject.so.2', 'BINARY'),
  ('libgmodule-2.0.so.0', '/usr/lib/libgmodule-2.0.so.0', 'BINARY'),
  ('libXcursor.so.1', '/usr/lib/libXcursor.so.1', 'BINARY'),
  ('libblkid.so.1', '/usr/lib/libblkid.so.1', 'BINARY'),
  ('libXinerama.so.1', '/usr/lib/libXinerama.so.1', 'BINARY'),
  ('libgtk-3.so.0', '/usr/lib/libgtk-3.so.0', 'BINARY'),
  ('libatspi.so.0', '/usr/lib/libatspi.so.0', 'BINARY'),
  ('libXcomposite.so.1', '/usr/lib/libXcomposite.so.1', 'BINARY'),
  ('libpixman-1.so.0', '/usr/lib/libpixman-1.so.0', 'BINARY'),
  ('libgdk-3.so.0', '/usr/lib/libgdk-3.so.0', 'BINARY'),
  ('libfribidi.so.0', '/usr/lib/libfribidi.so.0', 'BINARY'),
  ('libcairo.so.2', '/usr/lib/libcairo.so.2', 'BINARY'),
  ('libXfixes.so.3', '/usr/lib/libXfixes.so.3', 'BINARY'),
  ('libgio-2.0.so.0', '/usr/lib/libgio-2.0.so.0', 'BINARY'),
  ('libXrender.so.1', '/usr/lib/libXrender.so.1', 'BINARY'),
  ('libmount.so.1', '/usr/lib/libmount.so.1', 'BINARY'),
  ('libdatrie.so.1', '/usr/lib/libdatrie.so.1', 'BINARY'),
  ('libthai.so.0', '/usr/lib/libthai.so.0', 'BINARY'),
  ('libgdk_pixbuf-2.0.so.0', '/usr/lib/libgdk_pixbuf-2.0.so.0', 'BINARY'),
  ('libxcb-shm.so.0', '/usr/lib/libxcb-shm.so.0', 'BINARY'),
  ('libpangocairo-1.0.so.0', '/usr/lib/libpangocairo-1.0.so.0', 'BINARY'),
  ('libX11-xcb.so.1', '/usr/lib/libX11-xcb.so.1', 'BINARY'),
  ('libQt5XcbQpa.so.5',
   '/home/brian/Projects/copierOrganizer/copierAppEnv/lib/python3.6/site-packages/PyQt5/Qt/plugins/platforms/../../lib/libQt5XcbQpa.so.5',
   'BINARY'),
  ('libgssapi_krb5.so.2', '/usr/lib/libgssapi_krb5.so.2', 'BINARY'),
  ('libp11-kit.so.0', '/usr/lib/libp11-kit.so.0', 'BINARY'),
  ('libhogweed.so.4', '/usr/lib/libhogweed.so.4', 'BINARY'),
  ('libavahi-client.so.3', '/usr/lib/libavahi-client.so.3', 'BINARY'),
  ('libnettle.so.6', '/usr/lib/libnettle.so.6', 'BINARY'),
  ('libcups.so.2', '/usr/lib/libcups.so.2', 'BINARY'),
  ('libQt5PrintSupport.so.5',
   '/home/brian/Projects/copierOrganizer/copierAppEnv/lib/python3.6/site-packages/PyQt5/Qt/plugins/printsupport/../../lib/libQt5PrintSupport.so.5',
   'BINARY'),
  ('libtasn1.so.6', '/usr/lib/libtasn1.so.6', 'BINARY'),
  ('libgnutls.so.30', '/usr/lib/libgnutls.so.30', 'BINARY'),
  ('libgmp.so.10', '/usr/lib/libgmp.so.10', 'BINARY'),
  ('libavahi-common.so.3', '/usr/lib/libavahi-common.so.3', 'BINARY'),
  ('libkeyutils.so.1', '/usr/lib/libkeyutils.so.1', 'BINARY'),
  ('libk5crypto.so.3', '/usr/lib/libk5crypto.so.3', 'BINARY'),
  ('libkrb5.so.3', '/usr/lib/libkrb5.so.3', 'BINARY'),
  ('libcom_err.so.2', '/usr/lib/libcom_err.so.2', 'BINARY'),
  ('libunistring.so.2', '/usr/lib/libunistring.so.2', 'BINARY'),
  ('libkrb5support.so.0', '/usr/lib/libkrb5support.so.0', 'BINARY'),
  ('libssl.so.1.1', '/usr/lib/libssl.so.1.1', 'BINARY'),
  ('libcrypto.so.1.1', '/usr/lib/libcrypto.so.1.1', 'BINARY'),
  ('libncursesw.so.6', '/usr/lib/libncursesw.so.6', 'BINARY'),
  ('libreadline.so.7', '/usr/lib/libreadline.so.7', 'BINARY'),
  ('libsqlite3.so.0', '/usr/lib/libsqlite3.so.0', 'BINARY'),
  ('libicudata.so.61', '/usr/lib/libicudata.so.61', 'BINARY'),
  ('libicuuc.so.61', '/usr/lib/libicuuc.so.61', 'BINARY'),
  ('libicui18n.so.61', '/usr/lib/libicui18n.so.61', 'BINARY'),
  ('libdouble-conversion.so.1', '/usr/lib/libdouble-conversion.so.1', 'BINARY'),
  ('libpcre2-16.so.0', '/usr/lib/libpcre2-16.so.0', 'BINARY')],
 [],
 [],
 [('base_library.zip',
   '/home/brian/Projects/copierOrganizer/build/copier_organizer/base_library.zip',
   'DATA'),
  ('PyQt5/uic/widget-plugins/__pycache__/qtquickwidgets.cpython-36.pyc',
   '/home/brian/Projects/copierOrganizer/copierAppEnv/lib/python3.6/site-packages/PyQt5/uic/widget-plugins/__pycache__/qtquickwidgets.cpython-36.pyc',
   'DATA'),
  ('PyQt5/uic/widget-plugins/qtcharts.py',
   '/home/brian/Projects/copierOrganizer/copierAppEnv/lib/python3.6/site-packages/PyQt5/uic/widget-plugins/qtcharts.py',
   'DATA'),
  ('PyQt5/uic/widget-plugins/qtprintsupport.py',
   '/home/brian/Projects/copierOrganizer/copierAppEnv/lib/python3.6/site-packages/PyQt5/uic/widget-plugins/qtprintsupport.py',
   'DATA'),
  ('PyQt5/uic/widget-plugins/__pycache__/qtprintsupport.cpython-36.pyc',
   '/home/brian/Projects/copierOrganizer/copierAppEnv/lib/python3.6/site-packages/PyQt5/uic/widget-plugins/__pycache__/qtprintsupport.cpython-36.pyc',
   'DATA'),
  ('PyQt5/uic/widget-plugins/__pycache__/qtwebenginewidgets.cpython-36.pyc',
   '/home/brian/Projects/copierOrganizer/copierAppEnv/lib/python3.6/site-packages/PyQt5/uic/widget-plugins/__pycache__/qtwebenginewidgets.cpython-36.pyc',
   'DATA'),
  ('PyQt5/uic/widget-plugins/qtwebenginewidgets.py',
   '/home/brian/Projects/copierOrganizer/copierAppEnv/lib/python3.6/site-packages/PyQt5/uic/widget-plugins/qtwebenginewidgets.py',
   'DATA'),
  ('PyQt5/uic/widget-plugins/qaxcontainer.py',
   '/home/brian/Projects/copierOrganizer/copierAppEnv/lib/python3.6/site-packages/PyQt5/uic/widget-plugins/qaxcontainer.py',
   'DATA'),
  ('PyQt5/uic/widget-plugins/qtquickwidgets.py',
   '/home/brian/Projects/copierOrganizer/copierAppEnv/lib/python3.6/site-packages/PyQt5/uic/widget-plugins/qtquickwidgets.py',
   'DATA'),
  ('PyQt5/uic/widget-plugins/__pycache__/qtwebkit.cpython-36.pyc',
   '/home/brian/Projects/copierOrganizer/copierAppEnv/lib/python3.6/site-packages/PyQt5/uic/widget-plugins/__pycache__/qtwebkit.cpython-36.pyc',
   'DATA'),
  ('PyQt5/uic/widget-plugins/__pycache__/qtcharts.cpython-36.pyc',
   '/home/brian/Projects/copierOrganizer/copierAppEnv/lib/python3.6/site-packages/PyQt5/uic/widget-plugins/__pycache__/qtcharts.cpython-36.pyc',
   'DATA'),
  ('PyQt5/uic/widget-plugins/__pycache__/qscintilla.cpython-36.pyc',
   '/home/brian/Projects/copierOrganizer/copierAppEnv/lib/python3.6/site-packages/PyQt5/uic/widget-plugins/__pycache__/qscintilla.cpython-36.pyc',
   'DATA'),
  ('PyQt5/uic/widget-plugins/__pycache__/qaxcontainer.cpython-36.pyc',
   '/home/brian/Projects/copierOrganizer/copierAppEnv/lib/python3.6/site-packages/PyQt5/uic/widget-plugins/__pycache__/qaxcontainer.cpython-36.pyc',
   'DATA'),
  ('PyQt5/uic/widget-plugins/qtwebkit.py',
   '/home/brian/Projects/copierOrganizer/copierAppEnv/lib/python3.6/site-packages/PyQt5/uic/widget-plugins/qtwebkit.py',
   'DATA'),
  ('PyQt5/uic/widget-plugins/qscintilla.py',
   '/home/brian/Projects/copierOrganizer/copierAppEnv/lib/python3.6/site-packages/PyQt5/uic/widget-plugins/qscintilla.py',
   'DATA')],
 [])
