('source/views',
 None,
 [],
 'DATA',
 [('main_page.ui', 'source/views/main_page.ui', 'DATA'),
  ('admin_dialog.ui', 'source/views/admin_dialog.ui', 'DATA'),
  ('add_copiers.ui', 'source/views/add_copiers.ui', 'DATA')])
