('/home/brian/Projects/copierOrganizer/build/copier_organizer/out00-PYZ.pyz',
 [('posixpath', '/usr/lib/python3.6/posixpath.py', 'PYMODULE'),
  ('_strptime', '/usr/lib/python3.6/_strptime.py', 'PYMODULE'),
  ('datetime', '/usr/lib/python3.6/datetime.py', 'PYMODULE'),
  ('stringprep', '/usr/lib/python3.6/stringprep.py', 'PYMODULE'),
  ('stat', '/usr/lib/python3.6/stat.py', 'PYMODULE'),
  ('genericpath', '/usr/lib/python3.6/genericpath.py', 'PYMODULE'),
  ('ntpath', '/usr/lib/python3.6/ntpath.py', 'PYMODULE'),
  ('fnmatch', '/usr/lib/python3.6/fnmatch.py', 'PYMODULE'),
  ('_compat_pickle', '/usr/lib/python3.6/_compat_pickle.py', 'PYMODULE'),
  ('__future__', '/usr/lib/python3.6/__future__.py', 'PYMODULE'),
  ('difflib', '/usr/lib/python3.6/difflib.py', 'PYMODULE'),
  ('ast', '/usr/lib/python3.6/ast.py', 'PYMODULE'),
  ('inspect', '/usr/lib/python3.6/inspect.py', 'PYMODULE'),
  ('cmd', '/usr/lib/python3.6/cmd.py', 'PYMODULE'),
  ('bdb', '/usr/lib/python3.6/bdb.py', 'PYMODULE'),
  ('opcode', '/usr/lib/python3.6/opcode.py', 'PYMODULE'),
  ('dis', '/usr/lib/python3.6/dis.py', 'PYMODULE'),
  ('codeop', '/usr/lib/python3.6/codeop.py', 'PYMODULE'),
  ('code', '/usr/lib/python3.6/code.py', 'PYMODULE'),
  ('glob', '/usr/lib/python3.6/glob.py', 'PYMODULE'),
  ('shlex', '/usr/lib/python3.6/shlex.py', 'PYMODULE'),
  ('importlib._bootstrap',
   '/usr/lib/python3.6/importlib/_bootstrap.py',
   'PYMODULE'),
  ('importlib._bootstrap_external',
   '/usr/lib/python3.6/importlib/_bootstrap_external.py',
   'PYMODULE'),
  ('importlib.machinery',
   '/usr/lib/python3.6/importlib/machinery.py',
   'PYMODULE'),
  ('importlib.util', '/usr/lib/python3.6/importlib/util.py', 'PYMODULE'),
  ('importlib.abc', '/usr/lib/python3.6/importlib/abc.py', 'PYMODULE'),
  ('importlib', '/usr/lib/python3.6/importlib/__init__.py', 'PYMODULE'),
  ('pkgutil', '/usr/lib/python3.6/pkgutil.py', 'PYMODULE'),
  ('xml', '/usr/lib/python3.6/xml/__init__.py', 'PYMODULE'),
  ('xml.sax.expatreader',
   '/usr/lib/python3.6/xml/sax/expatreader.py',
   'PYMODULE'),
  ('xml.sax.saxutils', '/usr/lib/python3.6/xml/sax/saxutils.py', 'PYMODULE'),
  ('urllib.request', '/usr/lib/python3.6/urllib/request.py', 'PYMODULE'),
  ('getpass', '/usr/lib/python3.6/getpass.py', 'PYMODULE'),
  ('nturl2path', '/usr/lib/python3.6/nturl2path.py', 'PYMODULE'),
  ('ftplib', '/usr/lib/python3.6/ftplib.py', 'PYMODULE'),
  ('netrc', '/usr/lib/python3.6/netrc.py', 'PYMODULE'),
  ('http.cookiejar', '/usr/lib/python3.6/http/cookiejar.py', 'PYMODULE'),
  ('urllib.response', '/usr/lib/python3.6/urllib/response.py', 'PYMODULE'),
  ('urllib.error', '/usr/lib/python3.6/urllib/error.py', 'PYMODULE'),
  ('xml.sax', '/usr/lib/python3.6/xml/sax/__init__.py', 'PYMODULE'),
  ('xml.sax.handler', '/usr/lib/python3.6/xml/sax/handler.py', 'PYMODULE'),
  ('xml.sax._exceptions',
   '/usr/lib/python3.6/xml/sax/_exceptions.py',
   'PYMODULE'),
  ('xml.sax.xmlreader', '/usr/lib/python3.6/xml/sax/xmlreader.py', 'PYMODULE'),
  ('xml.parsers', '/usr/lib/python3.6/xml/parsers/__init__.py', 'PYMODULE'),
  ('xml.parsers.expat', '/usr/lib/python3.6/xml/parsers/expat.py', 'PYMODULE'),
  ('plistlib', '/usr/lib/python3.6/plistlib.py', 'PYMODULE'),
  ('platform', '/usr/lib/python3.6/platform.py', 'PYMODULE'),
  ('urllib.parse', '/usr/lib/python3.6/urllib/parse.py', 'PYMODULE'),
  ('tempfile', '/usr/lib/python3.6/tempfile.py', 'PYMODULE'),
  ('tty', '/usr/lib/python3.6/tty.py', 'PYMODULE'),
  ('pydoc_data', '/usr/lib/python3.6/pydoc_data/__init__.py', 'PYMODULE'),
  ('pydoc_data.topics', '/usr/lib/python3.6/pydoc_data/topics.py', 'PYMODULE'),
  ('html.entities', '/usr/lib/python3.6/html/entities.py', 'PYMODULE'),
  ('html', '/usr/lib/python3.6/html/__init__.py', 'PYMODULE'),
  ('ipaddress', '/usr/lib/python3.6/ipaddress.py', 'PYMODULE'),
  ('ssl', '/usr/lib/python3.6/ssl.py', 'PYMODULE'),
  ('http.client', '/usr/lib/python3.6/http/client.py', 'PYMODULE'),
  ('mimetypes', '/usr/lib/python3.6/mimetypes.py', 'PYMODULE'),
  ('socketserver', '/usr/lib/python3.6/socketserver.py', 'PYMODULE'),
  ('http', '/usr/lib/python3.6/http/__init__.py', 'PYMODULE'),
  ('http.server', '/usr/lib/python3.6/http/server.py', 'PYMODULE'),
  ('optparse', '/usr/lib/python3.6/optparse.py', 'PYMODULE'),
  ('uu', '/usr/lib/python3.6/uu.py', 'PYMODULE'),
  ('quopri', '/usr/lib/python3.6/quopri.py', 'PYMODULE'),
  ('email.feedparser', '/usr/lib/python3.6/email/feedparser.py', 'PYMODULE'),
  ('email.parser', '/usr/lib/python3.6/email/parser.py', 'PYMODULE'),
  ('email', '/usr/lib/python3.6/email/__init__.py', 'PYMODULE'),
  ('calendar', '/usr/lib/python3.6/calendar.py', 'PYMODULE'),
  ('email._parseaddr', '/usr/lib/python3.6/email/_parseaddr.py', 'PYMODULE'),
  ('email.utils', '/usr/lib/python3.6/email/utils.py', 'PYMODULE'),
  ('email.errors', '/usr/lib/python3.6/email/errors.py', 'PYMODULE'),
  ('email.header', '/usr/lib/python3.6/email/header.py', 'PYMODULE'),
  ('email._policybase', '/usr/lib/python3.6/email/_policybase.py', 'PYMODULE'),
  ('email.base64mime', '/usr/lib/python3.6/email/base64mime.py', 'PYMODULE'),
  ('email.encoders', '/usr/lib/python3.6/email/encoders.py', 'PYMODULE'),
  ('email.charset', '/usr/lib/python3.6/email/charset.py', 'PYMODULE'),
  ('base64', '/usr/lib/python3.6/base64.py', 'PYMODULE'),
  ('email._encoded_words',
   '/usr/lib/python3.6/email/_encoded_words.py',
   'PYMODULE'),
  ('hashlib', '/usr/lib/python3.6/hashlib.py', 'PYMODULE'),
  ('bisect', '/usr/lib/python3.6/bisect.py', 'PYMODULE'),
  ('random', '/usr/lib/python3.6/random.py', 'PYMODULE'),
  ('email.generator', '/usr/lib/python3.6/email/generator.py', 'PYMODULE'),
  ('email.iterators', '/usr/lib/python3.6/email/iterators.py', 'PYMODULE'),
  ('urllib', '/usr/lib/python3.6/urllib/__init__.py', 'PYMODULE'),
  ('email._header_value_parser',
   '/usr/lib/python3.6/email/_header_value_parser.py',
   'PYMODULE'),
  ('email.headerregistry',
   '/usr/lib/python3.6/email/headerregistry.py',
   'PYMODULE'),
  ('email.quoprimime', '/usr/lib/python3.6/email/quoprimime.py', 'PYMODULE'),
  ('email.contentmanager',
   '/usr/lib/python3.6/email/contentmanager.py',
   'PYMODULE'),
  ('email.policy', '/usr/lib/python3.6/email/policy.py', 'PYMODULE'),
  ('email.message', '/usr/lib/python3.6/email/message.py', 'PYMODULE'),
  ('bz2', '/usr/lib/python3.6/bz2.py', 'PYMODULE'),
  ('lzma', '/usr/lib/python3.6/lzma.py', 'PYMODULE'),
  ('_compression', '/usr/lib/python3.6/_compression.py', 'PYMODULE'),
  ('gzip', '/usr/lib/python3.6/gzip.py', 'PYMODULE'),
  ('tarfile', '/usr/lib/python3.6/tarfile.py', 'PYMODULE'),
  ('py_compile', '/usr/lib/python3.6/py_compile.py', 'PYMODULE'),
  ('zipfile', '/usr/lib/python3.6/zipfile.py', 'PYMODULE'),
  ('shutil', '/usr/lib/python3.6/shutil.py', 'PYMODULE'),
  ('socket', '/usr/lib/python3.6/socket.py', 'PYMODULE'),
  ('webbrowser', '/usr/lib/python3.6/webbrowser.py', 'PYMODULE'),
  ('pydoc', '/usr/lib/python3.6/pydoc.py', 'PYMODULE'),
  ('getopt', '/usr/lib/python3.6/getopt.py', 'PYMODULE'),
  ('pdb', '/usr/lib/python3.6/pdb.py', 'PYMODULE'),
  ('unittest.util', '/usr/lib/python3.6/unittest/util.py', 'PYMODULE'),
  ('unittest.result', '/usr/lib/python3.6/unittest/result.py', 'PYMODULE'),
  ('string', '/usr/lib/python3.6/string.py', 'PYMODULE'),
  ('logging', '/usr/lib/python3.6/logging/__init__.py', 'PYMODULE'),
  ('unittest.case', '/usr/lib/python3.6/unittest/case.py', 'PYMODULE'),
  ('unittest.suite', '/usr/lib/python3.6/unittest/suite.py', 'PYMODULE'),
  ('unittest.loader', '/usr/lib/python3.6/unittest/loader.py', 'PYMODULE'),
  ('unittest.runner', '/usr/lib/python3.6/unittest/runner.py', 'PYMODULE'),
  ('unittest.main', '/usr/lib/python3.6/unittest/main.py', 'PYMODULE'),
  ('unittest.signals', '/usr/lib/python3.6/unittest/signals.py', 'PYMODULE'),
  ('unittest', '/usr/lib/python3.6/unittest/__init__.py', 'PYMODULE'),
  ('doctest', '/usr/lib/python3.6/doctest.py', 'PYMODULE'),
  ('pprint', '/usr/lib/python3.6/pprint.py', 'PYMODULE'),
  ('pickle', '/usr/lib/python3.6/pickle.py', 'PYMODULE'),
  ('tracemalloc', '/usr/lib/python3.6/tracemalloc.py', 'PYMODULE'),
  ('warnings', '/usr/lib/python3.6/warnings.py', 'PYMODULE'),
  ('enum', '/usr/lib/python3.6/enum.py', 'PYMODULE'),
  ('signal', '/usr/lib/python3.6/signal.py', 'PYMODULE'),
  ('contextlib', '/usr/lib/python3.6/contextlib.py', 'PYMODULE'),
  ('_threading_local', '/usr/lib/python3.6/_threading_local.py', 'PYMODULE'),
  ('threading', '/usr/lib/python3.6/threading.py', 'PYMODULE'),
  ('selectors', '/usr/lib/python3.6/selectors.py', 'PYMODULE'),
  ('_dummy_thread', '/usr/lib/python3.6/_dummy_thread.py', 'PYMODULE'),
  ('dummy_threading', '/usr/lib/python3.6/dummy_threading.py', 'PYMODULE'),
  ('subprocess', '/usr/lib/python3.6/subprocess.py', 'PYMODULE'),
  ('token', '/usr/lib/python3.6/token.py', 'PYMODULE'),
  ('copy', '/usr/lib/python3.6/copy.py', 'PYMODULE'),
  ('textwrap', '/usr/lib/python3.6/textwrap.py', 'PYMODULE'),
  ('struct', '/usr/lib/python3.6/struct.py', 'PYMODULE'),
  ('gettext', '/usr/lib/python3.6/gettext.py', 'PYMODULE'),
  ('argparse', '/usr/lib/python3.6/argparse.py', 'PYMODULE'),
  ('tokenize', '/usr/lib/python3.6/tokenize.py', 'PYMODULE'),
  ('csv_writer.csv_builder',
   '/home/brian/Projects/copierOrganizer/source/csv_writer/csv_builder.py',
   'PYMODULE'),
  ('csv_writer', '-', 'PYMODULE'),
  ('csv', '/usr/lib/python3.6/csv.py', 'PYMODULE'),
  ('dialogs.CSV_dialog',
   '/home/brian/Projects/copierOrganizer/source/dialogs/CSV_dialog.py',
   'PYMODULE'),
  ('dialogs', '-', 'PYMODULE'),
  ('dialogs.abstract_data_form',
   '/home/brian/Projects/copierOrganizer/source/dialogs/abstract_data_form.py',
   'PYMODULE'),
  ('dialogs.location_dialogs',
   '/home/brian/Projects/copierOrganizer/source/dialogs/location_dialogs.py',
   'PYMODULE'),
  ('dialogs.account_dialogs',
   '/home/brian/Projects/copierOrganizer/source/dialogs/account_dialogs.py',
   'PYMODULE'),
  ('dialogs.admin_dialogs',
   '/home/brian/Projects/copierOrganizer/source/dialogs/admin_dialogs.py',
   'PYMODULE'),
  ('dialogs.copier_dialog',
   '/home/brian/Projects/copierOrganizer/source/dialogs/copier_dialog.py',
   'PYMODULE'),
  ('error_handling.error_handler',
   '/home/brian/Projects/copierOrganizer/source/error_handling/error_handler.py',
   'PYMODULE'),
  ('error_handling', '-', 'PYMODULE'),
  ('error_handling.error_dialog',
   '/home/brian/Projects/copierOrganizer/source/error_handling/error_dialog.py',
   'PYMODULE'),
  ('SQL.locations_accounts_join',
   '/home/brian/Projects/copierOrganizer/source/SQL/locations_accounts_join.py',
   'PYMODULE'),
  ('SQL.db_interface',
   '/home/brian/Projects/copierOrganizer/source/SQL/db_interface.py',
   'PYMODULE'),
  ('sqlite3', '/usr/lib/python3.6/sqlite3/__init__.py', 'PYMODULE'),
  ('sqlite3.dump', '/usr/lib/python3.6/sqlite3/dump.py', 'PYMODULE'),
  ('sqlite3.dbapi2', '/usr/lib/python3.6/sqlite3/dbapi2.py', 'PYMODULE'),
  ('SQL.account_statements',
   '/home/brian/Projects/copierOrganizer/source/SQL/account_statements.py',
   'PYMODULE'),
  ('SQL.location_statements',
   '/home/brian/Projects/copierOrganizer/source/SQL/location_statements.py',
   'PYMODULE'),
  ('SQL.admin_statements',
   '/home/brian/Projects/copierOrganizer/source/SQL/admin_statements.py',
   'PYMODULE'),
  ('SQL.copier_statements',
   '/home/brian/Projects/copierOrganizer/source/SQL/copier_statements.py',
   'PYMODULE'),
  ('SQL.build_tables',
   '/home/brian/Projects/copierOrganizer/source/SQL/build_tables.py',
   'PYMODULE'),
  ('SQL',
   '/home/brian/Projects/copierOrganizer/source/SQL/__init__.py',
   'PYMODULE'),
  ('PyQt5.uic',
   '/home/brian/Projects/copierOrganizer/copierAppEnv/lib/python3.6/site-packages/PyQt5/uic/__init__.py',
   'PYMODULE'),
  ('PyQt5.uic.objcreator',
   '/home/brian/Projects/copierOrganizer/copierAppEnv/lib/python3.6/site-packages/PyQt5/uic/objcreator.py',
   'PYMODULE'),
  ('PyQt5.uic.exceptions',
   '/home/brian/Projects/copierOrganizer/copierAppEnv/lib/python3.6/site-packages/PyQt5/uic/exceptions.py',
   'PYMODULE'),
  ('PyQt5.uic.Loader.loader',
   '/home/brian/Projects/copierOrganizer/copierAppEnv/lib/python3.6/site-packages/PyQt5/uic/Loader/loader.py',
   'PYMODULE'),
  ('PyQt5.uic.Loader',
   '/home/brian/Projects/copierOrganizer/copierAppEnv/lib/python3.6/site-packages/PyQt5/uic/Loader/__init__.py',
   'PYMODULE'),
  ('PyQt5.uic.Loader.qobjectcreator',
   '/home/brian/Projects/copierOrganizer/copierAppEnv/lib/python3.6/site-packages/PyQt5/uic/Loader/qobjectcreator.py',
   'PYMODULE'),
  ('PyQt5.uic.uiparser',
   '/home/brian/Projects/copierOrganizer/copierAppEnv/lib/python3.6/site-packages/PyQt5/uic/uiparser.py',
   'PYMODULE'),
  ('PyQt5.uic.properties',
   '/home/brian/Projects/copierOrganizer/copierAppEnv/lib/python3.6/site-packages/PyQt5/uic/properties.py',
   'PYMODULE'),
  ('PyQt5.uic.port_v3.ascii_upper',
   '/home/brian/Projects/copierOrganizer/copierAppEnv/lib/python3.6/site-packages/PyQt5/uic/port_v3/ascii_upper.py',
   'PYMODULE'),
  ('PyQt5.uic.port_v3',
   '/home/brian/Projects/copierOrganizer/copierAppEnv/lib/python3.6/site-packages/PyQt5/uic/port_v3/__init__.py',
   'PYMODULE'),
  ('PyQt5.uic.icon_cache',
   '/home/brian/Projects/copierOrganizer/copierAppEnv/lib/python3.6/site-packages/PyQt5/uic/icon_cache.py',
   'PYMODULE'),
  ('xml.etree.ElementTree',
   '/usr/lib/python3.6/xml/etree/ElementTree.py',
   'PYMODULE'),
  ('xml.etree.ElementInclude',
   '/usr/lib/python3.6/xml/etree/ElementInclude.py',
   'PYMODULE'),
  ('xml.etree.cElementTree',
   '/usr/lib/python3.6/xml/etree/cElementTree.py',
   'PYMODULE'),
  ('xml.etree.ElementPath',
   '/usr/lib/python3.6/xml/etree/ElementPath.py',
   'PYMODULE'),
  ('xml.etree', '/usr/lib/python3.6/xml/etree/__init__.py', 'PYMODULE'),
  ('PyQt5.uic.port_v2.string_io',
   '/home/brian/Projects/copierOrganizer/copierAppEnv/lib/python3.6/site-packages/PyQt5/uic/port_v2/string_io.py',
   'PYMODULE'),
  ('PyQt5.uic.port_v2',
   '/home/brian/Projects/copierOrganizer/copierAppEnv/lib/python3.6/site-packages/PyQt5/uic/port_v2/__init__.py',
   'PYMODULE'),
  ('PyQt5.uic.port_v3.string_io',
   '/home/brian/Projects/copierOrganizer/copierAppEnv/lib/python3.6/site-packages/PyQt5/uic/port_v3/string_io.py',
   'PYMODULE'),
  ('PyQt5.uic.Compiler.compiler',
   '/home/brian/Projects/copierOrganizer/copierAppEnv/lib/python3.6/site-packages/PyQt5/uic/Compiler/compiler.py',
   'PYMODULE'),
  ('PyQt5.uic.Compiler.qobjectcreator',
   '/home/brian/Projects/copierOrganizer/copierAppEnv/lib/python3.6/site-packages/PyQt5/uic/Compiler/qobjectcreator.py',
   'PYMODULE'),
  ('PyQt5.uic.port_v2.as_string',
   '/home/brian/Projects/copierOrganizer/copierAppEnv/lib/python3.6/site-packages/PyQt5/uic/port_v2/as_string.py',
   'PYMODULE'),
  ('PyQt5.uic.port_v3.as_string',
   '/home/brian/Projects/copierOrganizer/copierAppEnv/lib/python3.6/site-packages/PyQt5/uic/port_v3/as_string.py',
   'PYMODULE'),
  ('PyQt5.uic.Compiler.qtproxies',
   '/home/brian/Projects/copierOrganizer/copierAppEnv/lib/python3.6/site-packages/PyQt5/uic/Compiler/qtproxies.py',
   'PYMODULE'),
  ('PyQt5.uic.port_v2.proxy_base',
   '/home/brian/Projects/copierOrganizer/copierAppEnv/lib/python3.6/site-packages/PyQt5/uic/port_v2/proxy_base.py',
   'PYMODULE'),
  ('PyQt5.uic.Compiler.proxy_metaclass',
   '/home/brian/Projects/copierOrganizer/copierAppEnv/lib/python3.6/site-packages/PyQt5/uic/Compiler/proxy_metaclass.py',
   'PYMODULE'),
  ('PyQt5.uic.port_v3.proxy_base',
   '/home/brian/Projects/copierOrganizer/copierAppEnv/lib/python3.6/site-packages/PyQt5/uic/port_v3/proxy_base.py',
   'PYMODULE'),
  ('PyQt5.uic.Compiler.misc',
   '/home/brian/Projects/copierOrganizer/copierAppEnv/lib/python3.6/site-packages/PyQt5/uic/Compiler/misc.py',
   'PYMODULE'),
  ('PyQt5.uic.Compiler.indenter',
   '/home/brian/Projects/copierOrganizer/copierAppEnv/lib/python3.6/site-packages/PyQt5/uic/Compiler/indenter.py',
   'PYMODULE'),
  ('PyQt5.uic.Compiler',
   '/home/brian/Projects/copierOrganizer/copierAppEnv/lib/python3.6/site-packages/PyQt5/uic/Compiler/__init__.py',
   'PYMODULE'),
  ('PyQt5',
   '/home/brian/Projects/copierOrganizer/copierAppEnv/lib/python3.6/site-packages/PyQt5/__init__.py',
   'PYMODULE'),
  ('os', '/usr/lib/python3.6/os.py', 'PYMODULE')])
