('source/code',
 None,
 [],
 'DATA',
 [('copier_dialogs.py', 'source/code/copier_dialogs.py', 'DATA'),
  ('__init__.py', 'source/code/__init__.py', 'DATA'),
  ('__pycache__/__init__.cpython-36.pyc',
   'source/code/__pycache__/__init__.cpython-36.pyc',
   'DATA'),
  ('__pycache__/copiers.cpython-36.pyc',
   'source/code/__pycache__/copiers.cpython-36.pyc',
   'DATA'),
  ('__pycache__/copier_dialogs.cpython-36.pyc',
   'source/code/__pycache__/copier_dialogs.cpython-36.pyc',
   'DATA')])
